,Acquisition,Contrast,T-Stat Path,Run,Session,Subject,Task,P-Stat Path,Treatment,Mean Cluster t,Median Cluster t,Mean Cluster Significance,Median Cluster Significance,Exclude,Irregularities
0,EPI,cbv,/home/chymera/.scratch/drlfom/dw_l1/sub-5668/ses-ofM/sub-5668_ses-ofM_task-JogB_acq-EPI_run-0_cbv_tstat.nii.gz,0,ofM,5668,JogB,/home/chymera/.scratch/drlfom/dw_l1/sub-5668/ses-ofM/sub-5668_ses-ofM_task-JogB_acq-EPI_run-0_cbv_pstat.nii.gz,Fluoxetine,0.4586125314235687,0.4410264492034912,1.109255313873291,0.4928666651248932,False,ICA failed to indicate response to stimulus
1,EPI,cbv,/home/chymera/.scratch/drlfom/dw_l1/sub-5673/ses-ofM/sub-5673_ses-ofM_task-CogB_acq-EPI_run-0_cbv_tstat.nii.gz,0,ofM,5673,CogB,/home/chymera/.scratch/drlfom/dw_l1/sub-5673/ses-ofM/sub-5673_ses-ofM_task-CogB_acq-EPI_run-0_cbv_pstat.nii.gz,Vehicle,-0.3492039442062378,-0.3448512554168701,0.6358057856559753,0.1949455887079239,False,laser power low (30mW); ICA failed to indicate response to stimulus
2,EPI,cbv,/home/chymera/.scratch/drlfom/dw_l1/sub-5674/ses-ofM/sub-5674_ses-ofM_task-CogB_acq-EPI_run-0_cbv_tstat.nii.gz,0,ofM,5674,CogB,/home/chymera/.scratch/drlfom/dw_l1/sub-5674/ses-ofM/sub-5674_ses-ofM_task-CogB_acq-EPI_run-0_cbv_pstat.nii.gz,Fluoxetine,0.17795135080814362,0.13643819093704224,0.8522939682006836,0.36248087882995605,False,ICA failed to indicate response to stimulus
3,EPI,cbv,/home/chymera/.scratch/drlfom/dw_l1/sub-5675/ses-ofM/sub-5675_ses-ofM_task-JogB_acq-EPI_run-0_cbv_tstat.nii.gz,0,ofM,5675,JogB,/home/chymera/.scratch/drlfom/dw_l1/sub-5675/ses-ofM/sub-5675_ses-ofM_task-JogB_acq-EPI_run-0_cbv_pstat.nii.gz,Fluoxetine,-0.5050421357154846,-0.43907201290130615,0.5385941863059998,0.1636044681072235,False,ICA failed to indicate response to stimulus
4,EPI,cbv,/home/chymera/.scratch/drlfom/dw_l1/sub-5689/ses-ofM/sub-5689_ses-ofM_task-CogB_acq-EPI_run-0_cbv_tstat.nii.gz,0,ofM,5689,CogB,/home/chymera/.scratch/drlfom/dw_l1/sub-5689/ses-ofM/sub-5689_ses-ofM_task-CogB_acq-EPI_run-0_cbv_pstat.nii.gz,Fluoxetine,-1.4490303993225098,-1.366278052330017,0.377718985080719,0.04928094893693924,False,
5,EPI,cbv,/home/chymera/.scratch/drlfom/dw_l1/sub-5689/ses-ofMaF/sub-5689_ses-ofMaF_task-CogB_acq-EPI_run-0_cbv_tstat.nii.gz,0,ofMaF,5689,CogB,/home/chymera/.scratch/drlfom/dw_l1/sub-5689/ses-ofMaF/sub-5689_ses-ofMaF_task-CogB_acq-EPI_run-0_cbv_pstat.nii.gz,Fluoxetine,0.3569510281085968,0.394758403301239,2.496187686920166,0.5978508591651917,False,rapid breathing and whisker movement upon measurement conclusion (no signs of anesthetic mis-delivery)
6,EPI,cbv,/home/chymera/.scratch/drlfom/dw_l1/sub-5689/ses-ofMcF1/sub-5689_ses-ofMcF1_task-CogB_acq-EPI_run-0_cbv_tstat.nii.gz,0,ofMcF1,5689,CogB,/home/chymera/.scratch/drlfom/dw_l1/sub-5689/ses-ofMcF1/sub-5689_ses-ofMcF1_task-CogB_acq-EPI_run-0_cbv_pstat.nii.gz,Fluoxetine,0.10790219902992249,0.0500931441783905,1.8884434700012207,0.3964528739452362,False,
7,EPI,cbv,/home/chymera/.scratch/drlfom/dw_l1/sub-5689/ses-ofMcF2/sub-5689_ses-ofMcF2_task-CogB_acq-EPI_run-0_cbv_tstat.nii.gz,0,ofMcF2,5689,CogB,/home/chymera/.scratch/drlfom/dw_l1/sub-5689/ses-ofMcF2/sub-5689_ses-ofMcF2_task-CogB_acq-EPI_run-0_cbv_pstat.nii.gz,Fluoxetine,-0.6601386070251465,-0.57667076587677,1.2012076377868652,0.19851307570934296,False,
8,EPI,cbv,/home/chymera/.scratch/drlfom/dw_l1/sub-5689/ses-ofMpF/sub-5689_ses-ofMpF_task-CogB_acq-EPI_run-0_cbv_tstat.nii.gz,0,ofMpF,5689,CogB,/home/chymera/.scratch/drlfom/dw_l1/sub-5689/ses-ofMpF/sub-5689_ses-ofMpF_task-CogB_acq-EPI_run-0_cbv_pstat.nii.gz,Fluoxetine,-0.954731285572052,-0.8605321049690247,0.4898516833782196,0.10347441583871841,False,
9,EPI,cbv,/home/chymera/.scratch/drlfom/dw_l1/sub-5690/ses-ofM/sub-5690_ses-ofM_task-CogB_acq-EPI_run-0_cbv_tstat.nii.gz,0,ofM,5690,CogB,/home/chymera/.scratch/drlfom/dw_l1/sub-5690/ses-ofM/sub-5690_ses-ofM_task-CogB_acq-EPI_run-0_cbv_pstat.nii.gz,Fluoxetine,-2.826686143875122,-2.637401580810547,0.23867078125476837,0.008270198479294777,False,
10,EPI,cbv,/home/chymera/.scratch/drlfom/dw_l1/sub-5690/ses-ofMaF/sub-5690_ses-ofMaF_task-CogB_acq-EPI_run-0_cbv_tstat.nii.gz,0,ofMaF,5690,CogB,/home/chymera/.scratch/drlfom/dw_l1/sub-5690/ses-ofMaF/sub-5690_ses-ofMaF_task-CogB_acq-EPI_run-0_cbv_pstat.nii.gz,Fluoxetine,-7.155476093292236,-6.371090888977051,0.2951831519603729,0.0020085349678993225,False,
11,EPI,cbv,/home/chymera/.scratch/drlfom/dw_l1/sub-5690/ses-ofMcF1/sub-5690_ses-ofMcF1_task-CogB_acq-EPI_run-0_cbv_tstat.nii.gz,0,ofMcF1,5690,CogB,/home/chymera/.scratch/drlfom/dw_l1/sub-5690/ses-ofMcF1/sub-5690_ses-ofMcF1_task-CogB_acq-EPI_run-0_cbv_pstat.nii.gz,Fluoxetine,-2.6743674278259277,-2.282025098800659,0.748940110206604,0.047811154276132584,False,
12,EPI,cbv,/home/chymera/.scratch/drlfom/dw_l1/sub-5690/ses-ofMcF2/sub-5690_ses-ofMcF2_task-CogB_acq-EPI_run-0_cbv_tstat.nii.gz,0,ofMcF2,5690,CogB,/home/chymera/.scratch/drlfom/dw_l1/sub-5690/ses-ofMcF2/sub-5690_ses-ofMcF2_task-CogB_acq-EPI_run-0_cbv_pstat.nii.gz,Fluoxetine,-2.4121694564819336,-2.1615867614746094,0.6217990517616272,0.03783092647790909,False,
13,EPI,cbv,/home/chymera/.scratch/drlfom/dw_l1/sub-5690/ses-ofMpF/sub-5690_ses-ofMpF_task-CogB_acq-EPI_run-0_cbv_tstat.nii.gz,0,ofMpF,5690,CogB,/home/chymera/.scratch/drlfom/dw_l1/sub-5690/ses-ofMpF/sub-5690_ses-ofMpF_task-CogB_acq-EPI_run-0_cbv_pstat.nii.gz,Fluoxetine,-1.108329176902771,-1.1057531833648682,0.38306909799575806,0.06833717226982117,False,
14,EPI,cbv,/home/chymera/.scratch/drlfom/dw_l1/sub-5691/ses-ofM/sub-5691_ses-ofM_task-CogB_acq-EPI_run-0_cbv_tstat.nii.gz,0,ofM,5691,CogB,/home/chymera/.scratch/drlfom/dw_l1/sub-5691/ses-ofM/sub-5691_ses-ofM_task-CogB_acq-EPI_run-0_cbv_pstat.nii.gz,Vehicle,-1.625614047050476,-1.5442132949829102,0.32286137342453003,0.034991614520549774,False,
15,EPI,bold,/home/chymera/.scratch/drlfom/dw_l1/sub-5691/ses-ofMaF/sub-5691_ses-ofMaF_task-CogB_acq-EPI_run-0_bold_tstat.nii.gz,0,ofMaF,5691,CogB,/home/chymera/.scratch/drlfom/dw_l1/sub-5691/ses-ofMaF/sub-5691_ses-ofMaF_task-CogB_acq-EPI_run-0_bold_pstat.nii.gz,Vehicle,0.9612808227539062,0.8995717763900757,1.5784339904785156,0.7372536659240723,False,"tail too short, unable to cannulate"
16,EPI,bold,/home/chymera/.scratch/drlfom/dw_l1/sub-5691/ses-ofMcF1/sub-5691_ses-ofMcF1_task-CogB_acq-EPI_run-0_bold_tstat.nii.gz,0,ofMcF1,5691,CogB,/home/chymera/.scratch/drlfom/dw_l1/sub-5691/ses-ofMcF1/sub-5691_ses-ofMcF1_task-CogB_acq-EPI_run-0_bold_pstat.nii.gz,Fluoxetine,2.2246170043945312,2.054558038711548,3.5373528003692627,1.7091140747070312,False,"tail too short, unable to cannulate"
17,EPI,cbv,/home/chymera/.scratch/drlfom/dw_l1/sub-5691/ses-ofMcF2/sub-5691_ses-ofMcF2_task-CogB_acq-EPI_run-0_cbv_tstat.nii.gz,0,ofMcF2,5691,CogB,/home/chymera/.scratch/drlfom/dw_l1/sub-5691/ses-ofMcF2/sub-5691_ses-ofMcF2_task-CogB_acq-EPI_run-0_cbv_pstat.nii.gz,Fluoxetine,-2.7792396545410156,-2.631640911102295,0.26504191756248474,0.008051479235291481,False,
18,EPI,bold,/home/chymera/.scratch/drlfom/dw_l1/sub-5691/ses-ofMpF/sub-5691_ses-ofMpF_task-CogB_acq-EPI_run-0_bold_tstat.nii.gz,0,ofMpF,5691,CogB,/home/chymera/.scratch/drlfom/dw_l1/sub-5691/ses-ofMpF/sub-5691_ses-ofMpF_task-CogB_acq-EPI_run-0_bold_pstat.nii.gz,Fluoxetine,0.5425937175750732,0.5527214407920837,1.1409549713134766,0.5412468910217285,True,incomplete Endorem delivery
19,EPI,cbv,/home/chymera/.scratch/drlfom/dw_l1/sub-5692/ses-ofM/sub-5692_ses-ofM_task-CogB_acq-EPI_run-0_cbv_tstat.nii.gz,0,ofM,5692,CogB,/home/chymera/.scratch/drlfom/dw_l1/sub-5692/ses-ofM/sub-5692_ses-ofM_task-CogB_acq-EPI_run-0_cbv_pstat.nii.gz,Vehicle,0.02692045085132122,0.021583307534456253,0.7689963579177856,0.31046760082244873,False,
20,EPI,bold,/home/chymera/.scratch/drlfom/dw_l1/sub-5692/ses-ofMaF/sub-5692_ses-ofMaF_task-CogB_acq-EPI_run-0_bold_tstat.nii.gz,0,ofMaF,5692,CogB,/home/chymera/.scratch/drlfom/dw_l1/sub-5692/ses-ofMaF/sub-5692_ses-ofMaF_task-CogB_acq-EPI_run-0_bold_pstat.nii.gz,Vehicle,0.03636285662651062,0.04632268473505974,0.7724385857582092,0.3202996850013733,False,unable to cannulate; ICA failed to indicate response to stimulus
21,EPI,cbv,/home/chymera/.scratch/drlfom/dw_l1/sub-5692/ses-ofMcF1/sub-5692_ses-ofMcF1_task-CogB_acq-EPI_run-0_cbv_tstat.nii.gz,0,ofMcF1,5692,CogB,/home/chymera/.scratch/drlfom/dw_l1/sub-5692/ses-ofMcF1/sub-5692_ses-ofMcF1_task-CogB_acq-EPI_run-0_cbv_pstat.nii.gz,Vehicle,-0.032821133732795715,-0.049604032188653946,0.7440962195396423,0.2864989936351776,False,ICA failed to indicate response to stimulus
22,EPI,cbv,/home/chymera/.scratch/drlfom/dw_l1/sub-5692/ses-ofMcF2/sub-5692_ses-ofMcF2_task-CogB_acq-EPI_run-0_cbv_tstat.nii.gz,0,ofMcF2,5692,CogB,/home/chymera/.scratch/drlfom/dw_l1/sub-5692/ses-ofMcF2/sub-5692_ses-ofMcF2_task-CogB_acq-EPI_run-0_cbv_pstat.nii.gz,Vehicle,0.09300898760557175,0.09384752064943314,0.8091791868209839,0.33600011467933655,False,
23,EPI,cbv,/home/chymera/.scratch/drlfom/dw_l1/sub-5692/ses-ofMpF/sub-5692_ses-ofMpF_task-CogB_acq-EPI_run-0_cbv_tstat.nii.gz,0,ofMpF,5692,CogB,/home/chymera/.scratch/drlfom/dw_l1/sub-5692/ses-ofMpF/sub-5692_ses-ofMpF_task-CogB_acq-EPI_run-0_cbv_pstat.nii.gz,Vehicle,0.04452337697148323,0.033766113221645355,0.791915774345398,0.3142812252044678,False,
24,EPI,cbv,/home/chymera/.scratch/drlfom/dw_l1/sub-5694/ses-ofM/sub-5694_ses-ofM_task-CogB_acq-EPI_run-0_cbv_tstat.nii.gz,0,ofM,5694,CogB,/home/chymera/.scratch/drlfom/dw_l1/sub-5694/ses-ofM/sub-5694_ses-ofM_task-CogB_acq-EPI_run-0_cbv_pstat.nii.gz,Vehicle,-2.5216116905212402,-2.321817398071289,0.26176735758781433,0.01283259131014347,False,injected saline into failed cannulation site
25,EPI,cbv,/home/chymera/.scratch/drlfom/dw_l1/sub-5694/ses-ofMaF/sub-5694_ses-ofMaF_task-CogB_acq-EPI_run-0_cbv_tstat.nii.gz,0,ofMaF,5694,CogB,/home/chymera/.scratch/drlfom/dw_l1/sub-5694/ses-ofMaF/sub-5694_ses-ofMaF_task-CogB_acq-EPI_run-0_cbv_pstat.nii.gz,Vehicle,-1.770766258239746,-1.6383988857269287,0.34294748306274414,0.03457299619913101,False,
26,EPI,cbv,/home/chymera/.scratch/drlfom/dw_l1/sub-5694/ses-ofMcF1/sub-5694_ses-ofMcF1_task-CogB_acq-EPI_run-0_cbv_tstat.nii.gz,0,ofMcF1,5694,CogB,/home/chymera/.scratch/drlfom/dw_l1/sub-5694/ses-ofMcF1/sub-5694_ses-ofMcF1_task-CogB_acq-EPI_run-0_cbv_pstat.nii.gz,Vehicle,-1.6274627447128296,-1.5244214534759521,0.36776483058929443,0.041572071611881256,True,slightly incomplete Endorem delivery
27,EPI,cbv,/home/chymera/.scratch/drlfom/dw_l1/sub-5694/ses-ofMcF2/sub-5694_ses-ofMcF2_task-CogB_acq-EPI_run-0_cbv_tstat.nii.gz,0,ofMcF2,5694,CogB,/home/chymera/.scratch/drlfom/dw_l1/sub-5694/ses-ofMcF2/sub-5694_ses-ofMcF2_task-CogB_acq-EPI_run-0_cbv_pstat.nii.gz,Vehicle,-1.5550593137741089,-1.4783000946044922,0.3606588542461395,0.041558027267456055,False,
28,EPI,cbv,/home/chymera/.scratch/drlfom/dw_l1/sub-5694/ses-ofMpF/sub-5694_ses-ofMpF_task-CogB_acq-EPI_run-0_cbv_tstat.nii.gz,0,ofMpF,5694,CogB,/home/chymera/.scratch/drlfom/dw_l1/sub-5694/ses-ofMpF/sub-5694_ses-ofMpF_task-CogB_acq-EPI_run-0_cbv_pstat.nii.gz,Vehicle,-1.7472912073135376,-1.670684576034546,0.34472236037254333,0.03106546215713024,False,
29,EPI,cbv,/home/chymera/.scratch/drlfom/dw_l1/sub-5700/ses-ofM/sub-5700_ses-ofM_task-CogB_acq-EPI_run-0_cbv_tstat.nii.gz,0,ofM,5700,CogB,/home/chymera/.scratch/drlfom/dw_l1/sub-5700/ses-ofM/sub-5700_ses-ofM_task-CogB_acq-EPI_run-0_cbv_pstat.nii.gz,Fluoxetine,-0.9888274669647217,-0.8884032964706421,0.5077370405197144,0.10253462195396423,False,ICA failed to indicate response to stimulus
30,EPI,cbv,/home/chymera/.scratch/drlfom/dw_l1/sub-5700/ses-ofMaF/sub-5700_ses-ofMaF_task-CogB_acq-EPI_run-0_cbv_tstat.nii.gz,0,ofMaF,5700,CogB,/home/chymera/.scratch/drlfom/dw_l1/sub-5700/ses-ofMaF/sub-5700_ses-ofMaF_task-CogB_acq-EPI_run-0_cbv_pstat.nii.gz,Fluoxetine,-2.8388941287994385,-2.611771583557129,0.27890047430992126,0.00962147768586874,False,"re-ran adjustments after endorem administration, total delay ~20min"
31,EPI,cbv,/home/chymera/.scratch/drlfom/dw_l1/sub-5700/ses-ofMcF1/sub-5700_ses-ofMcF1_task-CogB_acq-EPI_run-0_cbv_tstat.nii.gz,0,ofMcF1,5700,CogB,/home/chymera/.scratch/drlfom/dw_l1/sub-5700/ses-ofMcF1/sub-5700_ses-ofMcF1_task-CogB_acq-EPI_run-0_cbv_pstat.nii.gz,Fluoxetine,-0.8926010727882385,-0.8411273956298828,0.602877140045166,0.1123991534113884,False,
32,EPI,cbv,/home/chymera/.scratch/drlfom/dw_l1/sub-5700/ses-ofMcF2/sub-5700_ses-ofMcF2_task-CogB_acq-EPI_run-0_cbv_tstat.nii.gz,0,ofMcF2,5700,CogB,/home/chymera/.scratch/drlfom/dw_l1/sub-5700/ses-ofMcF2/sub-5700_ses-ofMcF2_task-CogB_acq-EPI_run-0_cbv_pstat.nii.gz,Fluoxetine,-0.3163241147994995,-0.28835731744766235,0.8061000108718872,0.22701595723628998,False,
33,EPI,cbv,/home/chymera/.scratch/drlfom/dw_l1/sub-5700/ses-ofMpF/sub-5700_ses-ofMpF_task-CogB_acq-EPI_run-0_cbv_tstat.nii.gz,0,ofMpF,5700,CogB,/home/chymera/.scratch/drlfom/dw_l1/sub-5700/ses-ofMpF/sub-5700_ses-ofMpF_task-CogB_acq-EPI_run-0_cbv_pstat.nii.gz,Fluoxetine,-0.5347744226455688,-0.5065141916275024,0.5663596391677856,0.16296401619911194,False,
34,EPI,cbv,/home/chymera/.scratch/drlfom/dw_l1/sub-5704/ses-ofM/sub-5704_ses-ofM_task-CogB_acq-EPI_run-0_cbv_tstat.nii.gz,0,ofM,5704,CogB,/home/chymera/.scratch/drlfom/dw_l1/sub-5704/ses-ofM/sub-5704_ses-ofM_task-CogB_acq-EPI_run-0_cbv_pstat.nii.gz,Vehicle,-0.09879948198795319,-0.08537992835044861,0.7116822600364685,0.2745015025138855,False,"blinking and occasional, slight paw movement upon measurement conclusion (no signs of anesthetic mis-delivery); ICA failed to indicate response to stimulus"
35,EPI,cbv,/home/chymera/.scratch/drlfom/dw_l1/sub-5704/ses-ofMaF/sub-5704_ses-ofMaF_task-CogB_acq-EPI_run-0_cbv_tstat.nii.gz,0,ofMaF,5704,CogB,/home/chymera/.scratch/drlfom/dw_l1/sub-5704/ses-ofMaF/sub-5704_ses-ofMaF_task-CogB_acq-EPI_run-0_cbv_pstat.nii.gz,Vehicle,-0.3215920627117157,-0.31395798921585083,0.6144270896911621,0.20793986320495605,False,ICA failed to indicate response to stimulus
36,EPI,cbv,/home/chymera/.scratch/drlfom/dw_l1/sub-5704/ses-ofMcF1/sub-5704_ses-ofMcF1_task-CogB_acq-EPI_run-0_cbv_tstat.nii.gz,0,ofMcF1,5704,CogB,/home/chymera/.scratch/drlfom/dw_l1/sub-5704/ses-ofMcF1/sub-5704_ses-ofMcF1_task-CogB_acq-EPI_run-0_cbv_pstat.nii.gz,Vehicle,-0.16228769719600677,-0.17171433568000793,0.7028105854988098,0.24680770933628082,False,ICA failed to indicate response to stimulus
37,EPI,cbv,/home/chymera/.scratch/drlfom/dw_l1/sub-5704/ses-ofMcF2/sub-5704_ses-ofMcF2_task-CogB_acq-EPI_run-0_cbv_tstat.nii.gz,0,ofMcF2,5704,CogB,/home/chymera/.scratch/drlfom/dw_l1/sub-5704/ses-ofMcF2/sub-5704_ses-ofMcF2_task-CogB_acq-EPI_run-0_cbv_pstat.nii.gz,Vehicle,-0.15955597162246704,-0.19373363256454468,0.6882696151733398,0.23997445404529572,False,ICA failed to indicate response to stimulus; fMRI started 15 minutes later than the usual delay after contrast agent administration; laser turned on for at least a minute during scan; no subsequent stimulation
38,EPI,cbv,/home/chymera/.scratch/drlfom/dw_l1/sub-5704/ses-ofMpF/sub-5704_ses-ofMpF_task-CogB_acq-EPI_run-0_cbv_tstat.nii.gz,0,ofMpF,5704,CogB,/home/chymera/.scratch/drlfom/dw_l1/sub-5704/ses-ofMpF/sub-5704_ses-ofMpF_task-CogB_acq-EPI_run-0_cbv_pstat.nii.gz,Vehicle,-0.05188470333814621,-0.053221724927425385,0.731717586517334,0.2851850688457489,False,ICA failed to indicate response to stimulus
39,EPI,cbv,/home/chymera/.scratch/drlfom/dw_l1/sub-5706/ses-ofM/sub-5706_ses-ofM_task-CogB_acq-EPI_run-0_cbv_tstat.nii.gz,0,ofM,5706,CogB,/home/chymera/.scratch/drlfom/dw_l1/sub-5706/ses-ofM/sub-5706_ses-ofM_task-CogB_acq-EPI_run-0_cbv_pstat.nii.gz,Vehicle,-1.6093251705169678,-1.525585412979126,0.34301239252090454,0.03875311464071274,False,
40,EPI,cbv,/home/chymera/.scratch/drlfom/dw_l1/sub-5706/ses-ofMaF/sub-5706_ses-ofMaF_task-CogB_acq-EPI_run-0_cbv_tstat.nii.gz,0,ofMaF,5706,CogB,/home/chymera/.scratch/drlfom/dw_l1/sub-5706/ses-ofMaF/sub-5706_ses-ofMaF_task-CogB_acq-EPI_run-0_cbv_pstat.nii.gz,Vehicle,-2.1844470500946045,-1.9945950508117676,0.3004218339920044,0.021333321928977966,False,
41,EPI,cbv,/home/chymera/.scratch/drlfom/dw_l1/sub-5706/ses-ofMcF1/sub-5706_ses-ofMcF1_task-CogB_acq-EPI_run-0_cbv_tstat.nii.gz,0,ofMcF1,5706,CogB,/home/chymera/.scratch/drlfom/dw_l1/sub-5706/ses-ofMcF1/sub-5706_ses-ofMcF1_task-CogB_acq-EPI_run-0_cbv_pstat.nii.gz,Vehicle,-1.7564386129379272,-1.6287473440170288,0.34160640835762024,0.03380703926086426,False,
42,EPI,cbv,/home/chymera/.scratch/drlfom/dw_l1/sub-5706/ses-ofMcF2/sub-5706_ses-ofMcF2_task-CogB_acq-EPI_run-0_cbv_tstat.nii.gz,0,ofMcF2,5706,CogB,/home/chymera/.scratch/drlfom/dw_l1/sub-5706/ses-ofMcF2/sub-5706_ses-ofMcF2_task-CogB_acq-EPI_run-0_cbv_pstat.nii.gz,Vehicle,-1.3220432996749878,-1.249112606048584,0.4240870177745819,0.060223378241062164,False,
43,EPI,cbv,/home/chymera/.scratch/drlfom/dw_l1/sub-5706/ses-ofMpF/sub-5706_ses-ofMpF_task-CogB_acq-EPI_run-0_cbv_tstat.nii.gz,0,ofMpF,5706,CogB,/home/chymera/.scratch/drlfom/dw_l1/sub-5706/ses-ofMpF/sub-5706_ses-ofMpF_task-CogB_acq-EPI_run-0_cbv_pstat.nii.gz,Vehicle,-1.3639538288116455,-1.2708020210266113,0.37073829770088196,0.055362898856401443,False,
44,EPI,cbv,/home/chymera/.scratch/drlfom/dw_l1/sub-6255/ses-ofM/sub-6255_ses-ofM_task-CogB_acq-EPI_run-0_cbv_tstat.nii.gz,0,ofM,6255,CogB,/home/chymera/.scratch/drlfom/dw_l1/sub-6255/ses-ofM/sub-6255_ses-ofM_task-CogB_acq-EPI_run-0_cbv_pstat.nii.gz,Vehicle,-1.818572998046875,-1.6670255661010742,0.36246585845947266,0.035131338983774185,False,
45,EPI,cbv,/home/chymera/.scratch/drlfom/dw_l1/sub-6255/ses-ofMaF/sub-6255_ses-ofMaF_task-CogB_acq-EPI_run-0_cbv_tstat.nii.gz,0,ofMaF,6255,CogB,/home/chymera/.scratch/drlfom/dw_l1/sub-6255/ses-ofMaF/sub-6255_ses-ofMaF_task-CogB_acq-EPI_run-0_cbv_pstat.nii.gz,Vehicle,-0.849928081035614,-0.7974879145622253,0.5012374520301819,0.11346332728862762,False,
46,EPI,cbv,/home/chymera/.scratch/drlfom/dw_l1/sub-6255/ses-ofMcF1/sub-6255_ses-ofMcF1_task-CogB_acq-EPI_run-0_cbv_tstat.nii.gz,0,ofMcF1,6255,CogB,/home/chymera/.scratch/drlfom/dw_l1/sub-6255/ses-ofMcF1/sub-6255_ses-ofMcF1_task-CogB_acq-EPI_run-0_cbv_pstat.nii.gz,Vehicle,-1.0523344278335571,-0.9818693399429321,0.45304036140441895,0.08906707167625427,False,
47,EPI,cbv,/home/chymera/.scratch/drlfom/dw_l1/sub-6255/ses-ofMcF2/sub-6255_ses-ofMcF2_task-CogB_acq-EPI_run-0_cbv_tstat.nii.gz,0,ofMcF2,6255,CogB,/home/chymera/.scratch/drlfom/dw_l1/sub-6255/ses-ofMcF2/sub-6255_ses-ofMcF2_task-CogB_acq-EPI_run-0_cbv_pstat.nii.gz,Vehicle,-1.0644400119781494,-0.9726052284240723,0.4566379487514496,0.09092119336128235,False,
48,EPI,cbv,/home/chymera/.scratch/drlfom/dw_l1/sub-6262/ses-ofMcF1/sub-6262_ses-ofMcF1_task-CogB_acq-EPI_run-0_cbv_tstat.nii.gz,0,ofMcF1,6262,CogB,/home/chymera/.scratch/drlfom/dw_l1/sub-6262/ses-ofMcF1/sub-6262_ses-ofMcF1_task-CogB_acq-EPI_run-0_cbv_pstat.nii.gz,Vehicle,-0.9790304899215698,-0.9527082443237305,0.43608468770980835,0.08731403946876526,False,
49,EPI,cbv,/home/chymera/.scratch/drlfom/dw_l1/sub-6262/ses-ofMcF2/sub-6262_ses-ofMcF2_task-CogB_acq-EPI_run-0_cbv_tstat.nii.gz,0,ofMcF2,6262,CogB,/home/chymera/.scratch/drlfom/dw_l1/sub-6262/ses-ofMcF2/sub-6262_ses-ofMcF2_task-CogB_acq-EPI_run-0_cbv_pstat.nii.gz,Vehicle,-1.562326192855835,-1.4732608795166016,0.37012743949890137,0.04190665856003761,False,
50,EPI,cbv,/home/chymera/.scratch/drlfom/dw_l1/sub-6262/ses-ofMpF/sub-6262_ses-ofMpF_task-CogB_acq-EPI_run-0_cbv_tstat.nii.gz,0,ofMpF,6262,CogB,/home/chymera/.scratch/drlfom/dw_l1/sub-6262/ses-ofMpF/sub-6262_ses-ofMpF_task-CogB_acq-EPI_run-0_cbv_pstat.nii.gz,Vehicle,-1.1940648555755615,-1.1985630989074707,0.3958124816417694,0.059930529445409775,False,
51,EPI,cbv,/home/chymera/.scratch/drlfom/dw_l1/sub-6455/ses-ofM/sub-6455_ses-ofM_task-CogB_acq-EPI_run-0_cbv_tstat.nii.gz,0,ofM,6455,CogB,/home/chymera/.scratch/drlfom/dw_l1/sub-6455/ses-ofM/sub-6455_ses-ofM_task-CogB_acq-EPI_run-0_cbv_pstat.nii.gz,Vehicle,-1.2616310119628906,-1.1926714181900024,0.40184372663497925,0.06272632628679276,False,"blinking and occasional, slight paw movement upon measurement conclusion (no signs of anesthetic mis-delivery)"
52,EPI,cbv,/home/chymera/.scratch/drlfom/dw_l1/sub-6455/ses-ofMaF/sub-6455_ses-ofMaF_task-CogB_acq-EPI_run-0_cbv_tstat.nii.gz,0,ofMaF,6455,CogB,/home/chymera/.scratch/drlfom/dw_l1/sub-6455/ses-ofMaF/sub-6455_ses-ofMaF_task-CogB_acq-EPI_run-0_cbv_pstat.nii.gz,Vehicle,-0.9963598251342773,-0.9565915465354919,0.46235391497612,0.08952102065086365,False,
53,EPI,cbv,/home/chymera/.scratch/drlfom/dw_l1/sub-6455/ses-ofMcF1/sub-6455_ses-ofMcF1_task-CogB_acq-EPI_run-0_cbv_tstat.nii.gz,0,ofMcF1,6455,CogB,/home/chymera/.scratch/drlfom/dw_l1/sub-6455/ses-ofMcF1/sub-6455_ses-ofMcF1_task-CogB_acq-EPI_run-0_cbv_pstat.nii.gz,Vehicle,-1.0739563703536987,-0.9969873428344727,0.4898572564125061,0.08935819566249847,False,
54,EPI,cbv,/home/chymera/.scratch/drlfom/dw_l1/sub-6455/ses-ofMcF2/sub-6455_ses-ofMcF2_task-CogB_acq-EPI_run-0_cbv_tstat.nii.gz,0,ofMcF2,6455,CogB,/home/chymera/.scratch/drlfom/dw_l1/sub-6455/ses-ofMcF2/sub-6455_ses-ofMcF2_task-CogB_acq-EPI_run-0_cbv_pstat.nii.gz,Vehicle,-0.7333160638809204,-0.6945359706878662,0.5138765573501587,0.12891943752765656,False,
55,EPI,cbv,/home/chymera/.scratch/drlfom/dw_l1/sub-6455/ses-ofMpF/sub-6455_ses-ofMpF_task-CogB_acq-EPI_run-0_cbv_tstat.nii.gz,0,ofMpF,6455,CogB,/home/chymera/.scratch/drlfom/dw_l1/sub-6455/ses-ofMpF/sub-6455_ses-ofMpF_task-CogB_acq-EPI_run-0_cbv_pstat.nii.gz,Vehicle,-0.5829304456710815,-0.5757391452789307,0.5813631415367126,0.15076281130313873,False,
56,EPI,cbv,/home/chymera/.scratch/drlfom/dw_l1/sub-6456/ses-ofM/sub-6456_ses-ofM_task-CogB_acq-EPI_run-0_cbv_tstat.nii.gz,0,ofM,6456,CogB,/home/chymera/.scratch/drlfom/dw_l1/sub-6456/ses-ofM/sub-6456_ses-ofM_task-CogB_acq-EPI_run-0_cbv_pstat.nii.gz,Fluoxetine,-1.4842432737350464,-1.4128026962280273,0.3719550371170044,0.044473446905612946,False,
57,EPI,cbv,/home/chymera/.scratch/drlfom/dw_l1/sub-6456/ses-ofMaF/sub-6456_ses-ofMaF_task-CogB_acq-EPI_run-0_cbv_tstat.nii.gz,0,ofMaF,6456,CogB,/home/chymera/.scratch/drlfom/dw_l1/sub-6456/ses-ofMaF/sub-6456_ses-ofMaF_task-CogB_acq-EPI_run-0_cbv_pstat.nii.gz,Fluoxetine,-5.643587112426758,-4.868264198303223,0.2870425879955292,0.0014545972226187587,False,
58,EPI,cbv,/home/chymera/.scratch/drlfom/dw_l1/sub-6456/ses-ofMcF1/sub-6456_ses-ofMcF1_task-CogB_acq-EPI_run-0_cbv_tstat.nii.gz,0,ofMcF1,6456,CogB,/home/chymera/.scratch/drlfom/dw_l1/sub-6456/ses-ofMcF1/sub-6456_ses-ofMcF1_task-CogB_acq-EPI_run-0_cbv_pstat.nii.gz,Fluoxetine,-2.958096504211426,-2.698853015899658,0.3128799796104431,0.009303870610892773,False,
59,EPI,cbv,/home/chymera/.scratch/drlfom/dw_l1/sub-6456/ses-ofMcF2/sub-6456_ses-ofMcF2_task-CogB_acq-EPI_run-0_cbv_tstat.nii.gz,0,ofMcF2,6456,CogB,/home/chymera/.scratch/drlfom/dw_l1/sub-6456/ses-ofMcF2/sub-6456_ses-ofMcF2_task-CogB_acq-EPI_run-0_cbv_pstat.nii.gz,Fluoxetine,-1.0894174575805664,-0.9438235759735107,0.9317609071731567,0.12776833772659302,False,
60,EPI,cbv,/home/chymera/.scratch/drlfom/dw_l1/sub-6456/ses-ofMpF/sub-6456_ses-ofMpF_task-CogB_acq-EPI_run-0_cbv_tstat.nii.gz,0,ofMpF,6456,CogB,/home/chymera/.scratch/drlfom/dw_l1/sub-6456/ses-ofMpF/sub-6456_ses-ofMpF_task-CogB_acq-EPI_run-0_cbv_pstat.nii.gz,Fluoxetine,-1.325653076171875,-1.2330161333084106,0.4109485447406769,0.0605655238032341,False,
61,EPI,cbv,/home/chymera/.scratch/drlfom/dw_l1/sub-6459/ses-ofM/sub-6459_ses-ofM_task-CogB_acq-EPI_run-0_cbv_tstat.nii.gz,0,ofM,6459,CogB,/home/chymera/.scratch/drlfom/dw_l1/sub-6459/ses-ofM/sub-6459_ses-ofM_task-CogB_acq-EPI_run-0_cbv_pstat.nii.gz,Vehicle,-1.9094939231872559,-1.7151087522506714,0.3528519868850708,0.03529827296733856,False,
62,EPI,cbv,/home/chymera/.scratch/drlfom/dw_l1/sub-6459/ses-ofMaF/sub-6459_ses-ofMaF_task-CogB_acq-EPI_run-0_cbv_tstat.nii.gz,0,ofMaF,6459,CogB,/home/chymera/.scratch/drlfom/dw_l1/sub-6459/ses-ofMaF/sub-6459_ses-ofMaF_task-CogB_acq-EPI_run-0_cbv_pstat.nii.gz,Vehicle,-1.7906779050827026,-1.6698728799819946,0.3279831111431122,0.032519128173589706,False,
63,EPI,cbv,/home/chymera/.scratch/drlfom/dw_l1/sub-6459/ses-ofMcF1/sub-6459_ses-ofMcF1_task-CogB_acq-EPI_run-0_cbv_tstat.nii.gz,0,ofMcF1,6459,CogB,/home/chymera/.scratch/drlfom/dw_l1/sub-6459/ses-ofMcF1/sub-6459_ses-ofMcF1_task-CogB_acq-EPI_run-0_cbv_pstat.nii.gz,Vehicle,-1.1973165273666382,-1.1768465042114258,0.3891337513923645,0.06256408244371414,False,
64,EPI,cbv,/home/chymera/.scratch/drlfom/dw_l1/sub-6459/ses-ofMcF2/sub-6459_ses-ofMcF2_task-CogB_acq-EPI_run-0_cbv_tstat.nii.gz,0,ofMcF2,6459,CogB,/home/chymera/.scratch/drlfom/dw_l1/sub-6459/ses-ofMcF2/sub-6459_ses-ofMcF2_task-CogB_acq-EPI_run-0_cbv_pstat.nii.gz,Vehicle,-1.5928871631622314,-1.4982192516326904,0.3377287685871124,0.03876543045043945,False,
65,EPI,cbv,/home/chymera/.scratch/drlfom/dw_l1/sub-6459/ses-ofMpF/sub-6459_ses-ofMpF_task-CogB_acq-EPI_run-0_cbv_tstat.nii.gz,0,ofMpF,6459,CogB,/home/chymera/.scratch/drlfom/dw_l1/sub-6459/ses-ofMpF/sub-6459_ses-ofMpF_task-CogB_acq-EPI_run-0_cbv_pstat.nii.gz,Vehicle,-0.9679325222969055,-0.953087329864502,0.44190678000450134,0.08865564316511154,False,
66,EPI,cbv,/home/chymera/.scratch/drlfom/dw_l1/sub-6460/ses-ofM/sub-6460_ses-ofM_task-CogB_acq-EPI_run-0_cbv_tstat.nii.gz,0,ofM,6460,CogB,/home/chymera/.scratch/drlfom/dw_l1/sub-6460/ses-ofM/sub-6460_ses-ofM_task-CogB_acq-EPI_run-0_cbv_pstat.nii.gz,Fluoxetine,-1.7530194520950317,-1.6470892429351807,0.3105097711086273,0.031406696885824203,False,
67,EPI,cbv,/home/chymera/.scratch/drlfom/dw_l1/sub-6460/ses-ofMaF/sub-6460_ses-ofMaF_task-CogB_acq-EPI_run-0_cbv_tstat.nii.gz,0,ofMaF,6460,CogB,/home/chymera/.scratch/drlfom/dw_l1/sub-6460/ses-ofMaF/sub-6460_ses-ofMaF_task-CogB_acq-EPI_run-0_cbv_pstat.nii.gz,Fluoxetine,-3.8339107036590576,-3.489133358001709,0.17667359113693237,0.002842357847839594,False,pushed Endorem in with air
68,EPI,cbv,/home/chymera/.scratch/drlfom/dw_l1/sub-6460/ses-ofMcF1/sub-6460_ses-ofMcF1_task-CogB_acq-EPI_run-0_cbv_tstat.nii.gz,0,ofMcF1,6460,CogB,/home/chymera/.scratch/drlfom/dw_l1/sub-6460/ses-ofMcF1/sub-6460_ses-ofMcF1_task-CogB_acq-EPI_run-0_cbv_pstat.nii.gz,Fluoxetine,-0.9675485491752625,-0.9596784710884094,0.5657951831817627,0.0944046601653099,True,incomplete Endorem delivery
69,EPI,bold,/home/chymera/.scratch/drlfom/dw_l1/sub-6460/ses-ofMcF2/sub-6460_ses-ofMcF2_task-CogB_acq-EPI_run-0_bold_tstat.nii.gz,0,ofMcF2,6460,CogB,/home/chymera/.scratch/drlfom/dw_l1/sub-6460/ses-ofMcF2/sub-6460_ses-ofMcF2_task-CogB_acq-EPI_run-0_bold_pstat.nii.gz,Fluoxetine,2.9958019256591797,2.6831040382385254,5.054312229156494,2.448615074157715,False,
70,EPI,cbv,/home/chymera/.scratch/drlfom/dw_l1/sub-6461/ses-ofM/sub-6461_ses-ofM_task-CogB_acq-EPI_run-0_cbv_tstat.nii.gz,0,ofM,6461,CogB,/home/chymera/.scratch/drlfom/dw_l1/sub-6461/ses-ofM/sub-6461_ses-ofM_task-CogB_acq-EPI_run-0_cbv_pstat.nii.gz,Fluoxetine,-1.3817248344421387,-1.3324339389801025,0.36011627316474915,0.049263663589954376,False,
71,EPI,cbv,/home/chymera/.scratch/drlfom/dw_l1/sub-6461/ses-ofMaF/sub-6461_ses-ofMaF_task-CogB_acq-EPI_run-0_cbv_tstat.nii.gz,0,ofMaF,6461,CogB,/home/chymera/.scratch/drlfom/dw_l1/sub-6461/ses-ofMaF/sub-6461_ses-ofMaF_task-CogB_acq-EPI_run-0_cbv_pstat.nii.gz,Fluoxetine,-0.6171261072158813,-0.6112141609191895,0.5426962375640869,0.14061279594898224,True,maintained isoflurane at 1.5%% during measurement
72,EPI,cbv,/home/chymera/.scratch/drlfom/dw_l1/sub-6461/ses-ofMcF1/sub-6461_ses-ofMcF1_task-CogB_acq-EPI_run-0_cbv_tstat.nii.gz,0,ofMcF1,6461,CogB,/home/chymera/.scratch/drlfom/dw_l1/sub-6461/ses-ofMcF1/sub-6461_ses-ofMcF1_task-CogB_acq-EPI_run-0_cbv_pstat.nii.gz,Fluoxetine,-1.9643259048461914,-1.8330994844436646,0.3533778488636017,0.027836285531520844,False,
73,EPI,cbv,/home/chymera/.scratch/drlfom/dw_l1/sub-6461/ses-ofMcF2/sub-6461_ses-ofMcF2_task-CogB_acq-EPI_run-0_cbv_tstat.nii.gz,0,ofMcF2,6461,CogB,/home/chymera/.scratch/drlfom/dw_l1/sub-6461/ses-ofMcF2/sub-6461_ses-ofMcF2_task-CogB_acq-EPI_run-0_cbv_pstat.nii.gz,Fluoxetine,-1.3179761171340942,-1.2202389240264893,0.518170177936554,0.06941836327314377,False,
74,EPI,cbv,/home/chymera/.scratch/drlfom/dw_l1/sub-6461/ses-ofMpF/sub-6461_ses-ofMpF_task-CogB_acq-EPI_run-0_cbv_tstat.nii.gz,0,ofMpF,6461,CogB,/home/chymera/.scratch/drlfom/dw_l1/sub-6461/ses-ofMpF/sub-6461_ses-ofMpF_task-CogB_acq-EPI_run-0_cbv_pstat.nii.gz,Fluoxetine,-0.5236021280288696,-0.467566579580307,0.5514704585075378,0.1729384809732437,False,"blinking and occasional, slight paw movement upon measurement conclusion (no signs of anesthetic mis-delivery); implant detached right after measurement"
75,EPI,cbv,/home/chymera/.scratch/drlfom/dw_l1/sub-6462/ses-ofM/sub-6462_ses-ofM_task-CogB_acq-EPI_run-0_cbv_tstat.nii.gz,0,ofM,6462,CogB,/home/chymera/.scratch/drlfom/dw_l1/sub-6462/ses-ofM/sub-6462_ses-ofM_task-CogB_acq-EPI_run-0_cbv_pstat.nii.gz,Fluoxetine,-2.1636252403259277,-1.9257316589355469,0.3015580177307129,0.025348708033561707,False,
76,EPI,cbv,/home/chymera/.scratch/drlfom/dw_l1/sub-6462/ses-ofMaF/sub-6462_ses-ofMaF_task-CogB_acq-EPI_run-0_cbv_tstat.nii.gz,0,ofMaF,6462,CogB,/home/chymera/.scratch/drlfom/dw_l1/sub-6462/ses-ofMaF/sub-6462_ses-ofMaF_task-CogB_acq-EPI_run-0_cbv_pstat.nii.gz,Fluoxetine,-1.8754420280456543,-1.4525673389434814,0.4739099442958832,0.06521761417388916,False,"strongly lateralized response, uncommon given protocol; dental cement fixture slightly cracked, implant not loose"
77,EPI,bold,/home/chymera/.scratch/drlfom/dw_l1/sub-6462/ses-ofMcF1/sub-6462_ses-ofMcF1_task-CogB_acq-EPI_run-0_bold_tstat.nii.gz,0,ofMcF1,6462,CogB,/home/chymera/.scratch/drlfom/dw_l1/sub-6462/ses-ofMcF1/sub-6462_ses-ofMcF1_task-CogB_acq-EPI_run-0_bold_pstat.nii.gz,Fluoxetine,1.9485160112380981,1.8112622499465942,3.031066656112671,1.4674479961395264,False,
78,EPI,bold,/home/chymera/.scratch/drlfom/dw_l1/sub-6462/ses-ofMcF2/sub-6462_ses-ofMcF2_task-CogB_acq-EPI_run-0_bold_tstat.nii.gz,0,ofMcF2,6462,CogB,/home/chymera/.scratch/drlfom/dw_l1/sub-6462/ses-ofMcF2/sub-6462_ses-ofMcF2_task-CogB_acq-EPI_run-0_bold_pstat.nii.gz,Fluoxetine,0.8241235017776489,0.7211059331893921,1.6911742687225342,0.6403820514678955,False,
79,EPI,cbv,/home/chymera/.scratch/drlfom/dw_l1/sub-6530/ses-ofM/sub-6530_ses-ofM_task-CogB_acq-EPI_run-0_cbv_tstat.nii.gz,0,ofM,6530,CogB,/home/chymera/.scratch/drlfom/dw_l1/sub-6530/ses-ofM/sub-6530_ses-ofM_task-CogB_acq-EPI_run-0_cbv_pstat.nii.gz,Fluoxetine,-1.0701757669448853,-1.0128183364868164,0.45987623929977417,0.08429764956235886,False,session timestamp recorded at induction to maintenance anesthesia switch
80,EPI,cbv,/home/chymera/.scratch/drlfom/dw_l1/sub-6530/ses-ofMaF/sub-6530_ses-ofMaF_task-CogB_acq-EPI_run-0_cbv_tstat.nii.gz,0,ofMaF,6530,CogB,/home/chymera/.scratch/drlfom/dw_l1/sub-6530/ses-ofMaF/sub-6530_ses-ofMaF_task-CogB_acq-EPI_run-0_cbv_pstat.nii.gz,Fluoxetine,-1.3396985530853271,-1.266340732574463,0.3585858643054962,0.054808784276247025,False,
81,EPI,cbv,/home/chymera/.scratch/drlfom/dw_l1/sub-6530/ses-ofMcF1/sub-6530_ses-ofMcF1_task-CogB_acq-EPI_run-0_cbv_tstat.nii.gz,0,ofMcF1,6530,CogB,/home/chymera/.scratch/drlfom/dw_l1/sub-6530/ses-ofMcF1/sub-6530_ses-ofMcF1_task-CogB_acq-EPI_run-0_cbv_pstat.nii.gz,Fluoxetine,-1.1783696413040161,-1.1351318359375,0.4190821647644043,0.06779061257839203,False,
82,EPI,cbv,/home/chymera/.scratch/drlfom/dw_l1/sub-6530/ses-ofMcF2/sub-6530_ses-ofMcF2_task-CogB_acq-EPI_run-0_cbv_tstat.nii.gz,0,ofMcF2,6530,CogB,/home/chymera/.scratch/drlfom/dw_l1/sub-6530/ses-ofMcF2/sub-6530_ses-ofMcF2_task-CogB_acq-EPI_run-0_cbv_pstat.nii.gz,Fluoxetine,-0.8499163389205933,-0.8171741962432861,0.5064246654510498,0.10801093280315399,False,"rapid breathing, blinking, and whisker movement upon measurement conclusion (no signs of anesthetic mis-delivery)"
83,EPI,cbv,/home/chymera/.scratch/drlfom/dw_l1/sub-6530/ses-ofMpF/sub-6530_ses-ofMpF_task-CogB_acq-EPI_run-0_cbv_tstat.nii.gz,0,ofMpF,6530,CogB,/home/chymera/.scratch/drlfom/dw_l1/sub-6530/ses-ofMpF/sub-6530_ses-ofMpF_task-CogB_acq-EPI_run-0_cbv_pstat.nii.gz,Fluoxetine,-0.417817085981369,-0.4011777639389038,0.5924985408782959,0.18574947118759155,False,"CBV fMRI post-Endorem delay 15 minutes longer than protocol; rapid breathing, blinking, flinching, and whisker movement upon measurement conclusion (no signs of anesthetic mis-delivery)"
84,EPI,cbv,/home/chymera/.scratch/drlfom/dw_l1/sub-6532/ses-ofM/sub-6532_ses-ofM_task-CogB_acq-EPI_run-0_cbv_tstat.nii.gz,0,ofM,6532,CogB,/home/chymera/.scratch/drlfom/dw_l1/sub-6532/ses-ofM/sub-6532_ses-ofM_task-CogB_acq-EPI_run-0_cbv_pstat.nii.gz,Vehicle,-1.2782026529312134,-1.2403712272644043,0.38726919889450073,0.056876733899116516,False,"open female cages in close proximity prior to measurement; rapid breathing, blinking, and whisker movement upon measurement conclusion (no signs of anesthetic mis-delivery)"
85,EPI,cbv,/home/chymera/.scratch/drlfom/dw_l1/sub-6532/ses-ofMaF/sub-6532_ses-ofMaF_task-CogB_acq-EPI_run-0_cbv_tstat.nii.gz,0,ofMaF,6532,CogB,/home/chymera/.scratch/drlfom/dw_l1/sub-6532/ses-ofMaF/sub-6532_ses-ofMaF_task-CogB_acq-EPI_run-0_cbv_pstat.nii.gz,Vehicle,-0.9242129921913147,-0.8882346153259277,0.4497573673725128,0.09651204943656921,False,flinching (signs of partial Medetomidine anesthesia mis-delivery)
86,EPI,cbv,/home/chymera/.scratch/drlfom/dw_l1/sub-6532/ses-ofMcF1/sub-6532_ses-ofMcF1_task-CogB_acq-EPI_run-0_cbv_tstat.nii.gz,0,ofMcF1,6532,CogB,/home/chymera/.scratch/drlfom/dw_l1/sub-6532/ses-ofMcF1/sub-6532_ses-ofMcF1_task-CogB_acq-EPI_run-0_cbv_pstat.nii.gz,Vehicle,-0.6831321120262146,-0.6735073328018188,0.49659091234207153,0.12861771881580353,True,maintained isoflurane at 1.5%% during measurement
87,EPI,cbv,/home/chymera/.scratch/drlfom/dw_l1/sub-6532/ses-ofMcF2/sub-6532_ses-ofMcF2_task-CogB_acq-EPI_run-0_cbv_tstat.nii.gz,0,ofMcF2,6532,CogB,/home/chymera/.scratch/drlfom/dw_l1/sub-6532/ses-ofMcF2/sub-6532_ses-ofMcF2_task-CogB_acq-EPI_run-0_cbv_pstat.nii.gz,Vehicle,-0.5682862401008606,-0.5357257127761841,0.5531298518180847,0.1584017276763916,False,
88,EPI,cbv,/home/chymera/.scratch/drlfom/dw_l1/sub-6532/ses-ofMpF/sub-6532_ses-ofMpF_task-CogB_acq-EPI_run-0_cbv_tstat.nii.gz,0,ofMpF,6532,CogB,/home/chymera/.scratch/drlfom/dw_l1/sub-6532/ses-ofMpF/sub-6532_ses-ofMpF_task-CogB_acq-EPI_run-0_cbv_pstat.nii.gz,Vehicle,-0.357727587223053,-0.34971481561660767,0.6104375123977661,0.19802337884902954,False,
89,EPI,cbv,/home/chymera/.scratch/drlfom/dw_l1/sub-6542/ses-ofM/sub-6542_ses-ofM_task-CogB_acq-EPI_run-0_cbv_tstat.nii.gz,0,ofM,6542,CogB,/home/chymera/.scratch/drlfom/dw_l1/sub-6542/ses-ofM/sub-6542_ses-ofM_task-CogB_acq-EPI_run-0_cbv_pstat.nii.gz,Fluoxetine,-2.8635072708129883,-2.674353837966919,0.2991374135017395,0.008722754195332527,False,
90,EPI,cbv,/home/chymera/.scratch/drlfom/dw_l1/sub-6542/ses-ofMaF/sub-6542_ses-ofMaF_task-CogB_acq-EPI_run-0_cbv_tstat.nii.gz,0,ofMaF,6542,CogB,/home/chymera/.scratch/drlfom/dw_l1/sub-6542/ses-ofMaF/sub-6542_ses-ofMaF_task-CogB_acq-EPI_run-0_cbv_pstat.nii.gz,Fluoxetine,-2.38651442527771,-2.104156017303467,0.3259802758693695,0.022775523364543915,False,
91,EPI,cbv,/home/chymera/.scratch/drlfom/dw_l1/sub-6542/ses-ofMcF1/sub-6542_ses-ofMcF1_task-CogB_acq-EPI_run-0_cbv_tstat.nii.gz,0,ofMcF1,6542,CogB,/home/chymera/.scratch/drlfom/dw_l1/sub-6542/ses-ofMcF1/sub-6542_ses-ofMcF1_task-CogB_acq-EPI_run-0_cbv_pstat.nii.gz,Fluoxetine,-3.350069522857666,-3.012399196624756,0.4343195855617523,0.011926354840397835,False,session timestamp recorded at induction to maintenance anesthesia switch
92,EPI,cbv,/home/chymera/.scratch/drlfom/dw_l1/sub-6542/ses-ofMcF2/sub-6542_ses-ofMcF2_task-CogB_acq-EPI_run-0_cbv_tstat.nii.gz,0,ofMcF2,6542,CogB,/home/chymera/.scratch/drlfom/dw_l1/sub-6542/ses-ofMcF2/sub-6542_ses-ofMcF2_task-CogB_acq-EPI_run-0_cbv_pstat.nii.gz,Fluoxetine,-2.036029100418091,-1.8701324462890625,0.45761218667030334,0.03366881608963013,False,possibly missing stimulation events (Laser was found in interlock state on the subsequent scan)
93,EPI,cbv,/home/chymera/.scratch/drlfom/dw_l1/sub-6542/ses-ofMpF/sub-6542_ses-ofMpF_task-CogB_acq-EPI_run-0_cbv_tstat.nii.gz,0,ofMpF,6542,CogB,/home/chymera/.scratch/drlfom/dw_l1/sub-6542/ses-ofMpF/sub-6542_ses-ofMpF_task-CogB_acq-EPI_run-0_cbv_pstat.nii.gz,Fluoxetine,-1.331286907196045,-1.2852458953857422,0.3759036660194397,0.05411246791481972,False,
94,EPI,cbv,/home/chymera/.scratch/drlfom/dw_l1/sub-6548/ses-ofM/sub-6548_ses-ofM_task-CogB_acq-EPI_run-0_cbv_tstat.nii.gz,0,ofM,6548,CogB,/home/chymera/.scratch/drlfom/dw_l1/sub-6548/ses-ofM/sub-6548_ses-ofM_task-CogB_acq-EPI_run-0_cbv_pstat.nii.gz,Fluoxetine,-3.0951666831970215,-2.8240740299224854,0.3573800027370453,0.010321428067982197,False,session timestamp recorded at induction to maintenance anesthesia switch
95,EPI,cbv,/home/chymera/.scratch/drlfom/dw_l1/sub-6548/ses-ofMaF/sub-6548_ses-ofMaF_task-CogB_acq-EPI_run-0_cbv_tstat.nii.gz,0,ofMaF,6548,CogB,/home/chymera/.scratch/drlfom/dw_l1/sub-6548/ses-ofMaF/sub-6548_ses-ofMaF_task-CogB_acq-EPI_run-0_cbv_pstat.nii.gz,Fluoxetine,-1.622947096824646,-1.464819073677063,0.4390460252761841,0.04942447319626808,False,
96,EPI,cbv,/home/chymera/.scratch/drlfom/dw_l1/sub-6548/ses-ofMcF1/sub-6548_ses-ofMcF1_task-CogB_acq-EPI_run-0_cbv_tstat.nii.gz,0,ofMcF1,6548,CogB,/home/chymera/.scratch/drlfom/dw_l1/sub-6548/ses-ofMcF1/sub-6548_ses-ofMcF1_task-CogB_acq-EPI_run-0_cbv_pstat.nii.gz,Fluoxetine,-2.7392096519470215,-2.3359227180480957,0.6003404259681702,0.0331726148724556,False,
97,EPI,cbv,/home/chymera/.scratch/drlfom/dw_l1/sub-6548/ses-ofMcF2/sub-6548_ses-ofMcF2_task-CogB_acq-EPI_run-0_cbv_tstat.nii.gz,0,ofMcF2,6548,CogB,/home/chymera/.scratch/drlfom/dw_l1/sub-6548/ses-ofMcF2/sub-6548_ses-ofMcF2_task-CogB_acq-EPI_run-0_cbv_pstat.nii.gz,Fluoxetine,-1.4504461288452148,-1.3332972526550293,0.47394949197769165,0.058581333607435226,True,maintained isoflurane at 1.5%% during measurement
98,EPI,cbv,/home/chymera/.scratch/drlfom/dw_l1/sub-6548/ses-ofMpF/sub-6548_ses-ofMpF_task-CogB_acq-EPI_run-0_cbv_tstat.nii.gz,0,ofMpF,6548,CogB,/home/chymera/.scratch/drlfom/dw_l1/sub-6548/ses-ofMpF/sub-6548_ses-ofMpF_task-CogB_acq-EPI_run-0_cbv_pstat.nii.gz,Fluoxetine,-0.8978619575500488,-0.902218222618103,0.44702598452568054,0.09392637759447098,False,
99,EPI,cbv,/home/chymera/.scratch/drlfom/dw_l1/sub-6549/ses-ofM/sub-6549_ses-ofM_task-CogB_acq-EPI_run-0_cbv_tstat.nii.gz,0,ofM,6549,CogB,/home/chymera/.scratch/drlfom/dw_l1/sub-6549/ses-ofM/sub-6549_ses-ofM_task-CogB_acq-EPI_run-0_cbv_pstat.nii.gz,Fluoxetine,-3.5388505458831787,-3.255892515182495,0.32204705476760864,0.005405918695032597,False,
100,EPI,cbv,/home/chymera/.scratch/drlfom/dw_l1/sub-6549/ses-ofMaF/sub-6549_ses-ofMaF_task-CogB_acq-EPI_run-0_cbv_tstat.nii.gz,0,ofMaF,6549,CogB,/home/chymera/.scratch/drlfom/dw_l1/sub-6549/ses-ofMaF/sub-6549_ses-ofMaF_task-CogB_acq-EPI_run-0_cbv_pstat.nii.gz,Fluoxetine,-4.068124771118164,-3.269489049911499,0.3834744691848755,0.011174940504133701,False,
101,EPI,cbv,/home/chymera/.scratch/drlfom/dw_l1/sub-6549/ses-ofMcF1/sub-6549_ses-ofMcF1_task-CogB_acq-EPI_run-0_cbv_tstat.nii.gz,0,ofMcF1,6549,CogB,/home/chymera/.scratch/drlfom/dw_l1/sub-6549/ses-ofMcF1/sub-6549_ses-ofMcF1_task-CogB_acq-EPI_run-0_cbv_pstat.nii.gz,Fluoxetine,-1.395759105682373,-0.9950481653213501,1.1070492267608643,0.15989616513252258,False,
102,EPI,cbv,/home/chymera/.scratch/drlfom/dw_l1/sub-6549/ses-ofMcF2/sub-6549_ses-ofMcF2_task-CogB_acq-EPI_run-0_cbv_tstat.nii.gz,0,ofMcF2,6549,CogB,/home/chymera/.scratch/drlfom/dw_l1/sub-6549/ses-ofMcF2/sub-6549_ses-ofMcF2_task-CogB_acq-EPI_run-0_cbv_pstat.nii.gz,Fluoxetine,-1.3938028812408447,-1.3173058032989502,0.4475365877151489,0.05677318572998047,False,
103,EPI,cbv,/home/chymera/.scratch/drlfom/dw_l1/sub-6549/ses-ofMpF/sub-6549_ses-ofMpF_task-CogB_acq-EPI_run-0_cbv_tstat.nii.gz,0,ofMpF,6549,CogB,/home/chymera/.scratch/drlfom/dw_l1/sub-6549/ses-ofMpF/sub-6549_ses-ofMpF_task-CogB_acq-EPI_run-0_cbv_pstat.nii.gz,Fluoxetine,-2.5489017963409424,-2.291901111602783,0.3379729092121124,0.017518451437354088,True,maintained isoflurane at 1.5%% during measurement
104,EPI,cbv,/home/chymera/.scratch/drlfom/dw_l1/sub-6552/ses-ofM/sub-6552_ses-ofM_task-CogB_acq-EPI_run-0_cbv_tstat.nii.gz,0,ofM,6552,CogB,/home/chymera/.scratch/drlfom/dw_l1/sub-6552/ses-ofM/sub-6552_ses-ofM_task-CogB_acq-EPI_run-0_cbv_pstat.nii.gz,Vehicle,-0.7072925567626953,-0.706512451171875,0.5178724527359009,0.12426795065402985,False,
105,EPI,cbv,/home/chymera/.scratch/drlfom/dw_l1/sub-6552/ses-ofMaF/sub-6552_ses-ofMaF_task-CogB_acq-EPI_run-0_cbv_tstat.nii.gz,0,ofMaF,6552,CogB,/home/chymera/.scratch/drlfom/dw_l1/sub-6552/ses-ofMaF/sub-6552_ses-ofMaF_task-CogB_acq-EPI_run-0_cbv_pstat.nii.gz,Vehicle,-0.352122962474823,-0.36473989486694336,0.6969100832939148,0.19855894148349762,False,
106,EPI,cbv,/home/chymera/.scratch/drlfom/dw_l1/sub-6552/ses-ofMcF1/sub-6552_ses-ofMcF1_task-CogB_acq-EPI_run-0_cbv_tstat.nii.gz,0,ofMcF1,6552,CogB,/home/chymera/.scratch/drlfom/dw_l1/sub-6552/ses-ofMcF1/sub-6552_ses-ofMcF1_task-CogB_acq-EPI_run-0_cbv_pstat.nii.gz,Vehicle,-0.2952135503292084,-0.3002053499221802,0.6281233429908752,0.21178512275218964,False,
107,EPI,cbv,/home/chymera/.scratch/drlfom/dw_l1/sub-6552/ses-ofMcF2/sub-6552_ses-ofMcF2_task-CogB_acq-EPI_run-0_cbv_tstat.nii.gz,0,ofMcF2,6552,CogB,/home/chymera/.scratch/drlfom/dw_l1/sub-6552/ses-ofMcF2/sub-6552_ses-ofMcF2_task-CogB_acq-EPI_run-0_cbv_pstat.nii.gz,Vehicle,-1.137614130973816,-1.121394157409668,0.45124131441116333,0.069810651242733,False,
108,EPI,cbv,/home/chymera/.scratch/drlfom/dw_l1/sub-6552/ses-ofMpF/sub-6552_ses-ofMpF_task-CogB_acq-EPI_run-0_cbv_tstat.nii.gz,0,ofMpF,6552,CogB,/home/chymera/.scratch/drlfom/dw_l1/sub-6552/ses-ofMpF/sub-6552_ses-ofMpF_task-CogB_acq-EPI_run-0_cbv_pstat.nii.gz,Vehicle,-0.4866540729999542,-0.47733980417251587,0.5815080404281616,0.16854986548423767,False,
109,EPI,cbv,/home/chymera/.scratch/drlfom/dw_l1/sub-6553/ses-ofM/sub-6553_ses-ofM_task-CogB_acq-EPI_run-0_cbv_tstat.nii.gz,0,ofM,6553,CogB,/home/chymera/.scratch/drlfom/dw_l1/sub-6553/ses-ofM/sub-6553_ses-ofM_task-CogB_acq-EPI_run-0_cbv_pstat.nii.gz,Vehicle,-1.3013298511505127,-1.210932970046997,0.42580553889274597,0.06370162963867188,False,
110,EPI,cbv,/home/chymera/.scratch/drlfom/dw_l1/sub-6553/ses-ofMaF/sub-6553_ses-ofMaF_task-CogB_acq-EPI_run-0_cbv_tstat.nii.gz,0,ofMaF,6553,CogB,/home/chymera/.scratch/drlfom/dw_l1/sub-6553/ses-ofMaF/sub-6553_ses-ofMaF_task-CogB_acq-EPI_run-0_cbv_pstat.nii.gz,Vehicle,-0.9719356298446655,-0.9276748895645142,0.4325425624847412,0.09041896462440491,False,
111,EPI,cbv,/home/chymera/.scratch/drlfom/dw_l1/sub-6553/ses-ofMcF1/sub-6553_ses-ofMcF1_task-CogB_acq-EPI_run-0_cbv_tstat.nii.gz,0,ofMcF1,6553,CogB,/home/chymera/.scratch/drlfom/dw_l1/sub-6553/ses-ofMcF1/sub-6553_ses-ofMcF1_task-CogB_acq-EPI_run-0_cbv_pstat.nii.gz,Vehicle,-1.5641475915908813,-1.4773461818695068,0.34348881244659424,0.04032553359866142,False,
112,EPI,cbv,/home/chymera/.scratch/drlfom/dw_l1/sub-6553/ses-ofMcF2/sub-6553_ses-ofMcF2_task-CogB_acq-EPI_run-0_cbv_tstat.nii.gz,0,ofMcF2,6553,CogB,/home/chymera/.scratch/drlfom/dw_l1/sub-6553/ses-ofMcF2/sub-6553_ses-ofMcF2_task-CogB_acq-EPI_run-0_cbv_pstat.nii.gz,Vehicle,-0.930180549621582,-0.9029872417449951,0.43393823504447937,0.09412357211112976,False,"rapid breathing, blinking, and whisker movement upon measurement conclusion (no signs of anesthetic mis-delivery); rapid breathing, blinking, and whisker movement upon measurement conclusion (no signs of anesthetic mis-delivery)"
113,EPI,cbv,/home/chymera/.scratch/drlfom/dw_l1/sub-6553/ses-ofMpF/sub-6553_ses-ofMpF_task-CogB_acq-EPI_run-0_cbv_tstat.nii.gz,0,ofMpF,6553,CogB,/home/chymera/.scratch/drlfom/dw_l1/sub-6553/ses-ofMpF/sub-6553_ses-ofMpF_task-CogB_acq-EPI_run-0_cbv_pstat.nii.gz,Vehicle,-0.6737386584281921,-0.6615678071975708,0.5133053064346313,0.13184121251106262,False,
114,EPI,cbv,/home/chymera/.scratch/drlfom/dw_l1/sub-6556/ses-ofM/sub-6556_ses-ofM_task-CogB_acq-EPI_run-0_cbv_tstat.nii.gz,0,ofM,6556,CogB,/home/chymera/.scratch/drlfom/dw_l1/sub-6556/ses-ofM/sub-6556_ses-ofM_task-CogB_acq-EPI_run-0_cbv_pstat.nii.gz,Vehicle,-2.2980995178222656,-2.1937787532806396,0.274122029542923,0.013595802709460258,False,
115,EPI,bold,/home/chymera/.scratch/drlfom/dw_l1/sub-6556/ses-ofMaF/sub-6556_ses-ofMaF_task-CogB_acq-EPI_run-0_bold_tstat.nii.gz,0,ofMaF,6556,CogB,/home/chymera/.scratch/drlfom/dw_l1/sub-6556/ses-ofMaF/sub-6556_ses-ofMaF_task-CogB_acq-EPI_run-0_bold_pstat.nii.gz,Vehicle,0.4690988063812256,0.4355272054672241,1.1408263444900513,0.4833356738090515,False,"agitated during induction; tail too short, unable to cannulate"
116,EPI,bold,/home/chymera/.scratch/drlfom/dw_l1/sub-6556/ses-ofMcF1/sub-6556_ses-ofMcF1_task-CogB_acq-EPI_run-0_bold_tstat.nii.gz,0,ofMcF1,6556,CogB,/home/chymera/.scratch/drlfom/dw_l1/sub-6556/ses-ofMcF1/sub-6556_ses-ofMcF1_task-CogB_acq-EPI_run-0_bold_pstat.nii.gz,Vehicle,0.568515419960022,0.5587479472160339,1.1321598291397095,0.540946364402771,False,"tail too short, unable to cannulate"
117,EPI,bold,/home/chymera/.scratch/drlfom/dw_l1/sub-6556/ses-ofMcF2/sub-6556_ses-ofMcF2_task-CogB_acq-EPI_run-0_bold_tstat.nii.gz,0,ofMcF2,6556,CogB,/home/chymera/.scratch/drlfom/dw_l1/sub-6556/ses-ofMcF2/sub-6556_ses-ofMcF2_task-CogB_acq-EPI_run-0_bold_pstat.nii.gz,Vehicle,0.48304277658462524,0.4361831545829773,1.1226491928100586,0.4825156033039093,False,"session timestamp recorded at induction to maintenance anesthesia switch; tail too short, unable to cannulate; flinching (signs of partial Medetomidine anesthesia mis-delivery)"
118,EPI,bold,/home/chymera/.scratch/drlfom/dw_l1/sub-6556/ses-ofMpF/sub-6556_ses-ofMpF_task-CogB_acq-EPI_run-0_bold_tstat.nii.gz,0,ofMpF,6556,CogB,/home/chymera/.scratch/drlfom/dw_l1/sub-6556/ses-ofMpF/sub-6556_ses-ofMpF_task-CogB_acq-EPI_run-0_bold_pstat.nii.gz,Vehicle,0.8577309250831604,0.7899373769760132,1.495179533958435,0.6715165376663208,False,"tail too short, unable to cannulate"
