,Acquisition,Contrast,T-Stat Path,Run,Session,Subject,Task,P-Stat Path,Treatment,Mean Ctx t,Median Ctx t,Mean Ctx Significance,Median Ctx Significance,Exclude,Irregularities
0,EPI,cbv,/home/chymera/.scratch/drlfom/dw_l1_seed/sub-5668/ses-ofM/sub-5668_ses-ofM_task-JogB_acq-EPI_run-0_cbv_tstat.nii.gz,0,ofM,5668,JogB,/home/chymera/.scratch/drlfom/dw_l1_seed/sub-5668/ses-ofM/sub-5668_ses-ofM_task-JogB_acq-EPI_run-0_cbv_pstat.nii.gz,Fluoxetine,0.3695155084133148,0.33749860525131226,6.6970977783203125,0.5070265531539917,False,ICA failed to indicate response to stimulus
1,EPI,cbv,/home/chymera/.scratch/drlfom/dw_l1_seed/sub-5673/ses-ofM/sub-5673_ses-ofM_task-CogB_acq-EPI_run-0_cbv_tstat.nii.gz,0,ofM,5673,CogB,/home/chymera/.scratch/drlfom/dw_l1_seed/sub-5673/ses-ofM/sub-5673_ses-ofM_task-CogB_acq-EPI_run-0_cbv_pstat.nii.gz,Vehicle,0.30535876750946045,0.29356253147125244,6.256910800933838,0.5032228231430054,False,laser power low (30mW); ICA failed to indicate response to stimulus
2,EPI,cbv,/home/chymera/.scratch/drlfom/dw_l1_seed/sub-5674/ses-ofM/sub-5674_ses-ofM_task-CogB_acq-EPI_run-0_cbv_tstat.nii.gz,0,ofM,5674,CogB,/home/chymera/.scratch/drlfom/dw_l1_seed/sub-5674/ses-ofM/sub-5674_ses-ofM_task-CogB_acq-EPI_run-0_cbv_pstat.nii.gz,Fluoxetine,0.05206334963440895,0.04656335338950157,5.9123101234436035,0.4129354953765869,False,ICA failed to indicate response to stimulus
3,EPI,cbv,/home/chymera/.scratch/drlfom/dw_l1_seed/sub-5675/ses-ofM/sub-5675_ses-ofM_task-JogB_acq-EPI_run-0_cbv_tstat.nii.gz,0,ofM,5675,JogB,/home/chymera/.scratch/drlfom/dw_l1_seed/sub-5675/ses-ofM/sub-5675_ses-ofM_task-JogB_acq-EPI_run-0_cbv_pstat.nii.gz,Fluoxetine,-0.0049540200270712376,-0.02070538140833378,4.327849864959717,0.3551179766654968,False,ICA failed to indicate response to stimulus
4,EPI,cbv,/home/chymera/.scratch/drlfom/dw_l1_seed/sub-5689/ses-ofM/sub-5689_ses-ofM_task-CogB_acq-EPI_run-0_cbv_tstat.nii.gz,0,ofM,5689,CogB,/home/chymera/.scratch/drlfom/dw_l1_seed/sub-5689/ses-ofM/sub-5689_ses-ofM_task-CogB_acq-EPI_run-0_cbv_pstat.nii.gz,Fluoxetine,-2.1085963249206543,-1.7664929628372192,3.3069512844085693,0.1765144318342209,False,
5,EPI,cbv,/home/chymera/.scratch/drlfom/dw_l1_seed/sub-5689/ses-ofMaF/sub-5689_ses-ofMaF_task-CogB_acq-EPI_run-0_cbv_tstat.nii.gz,0,ofMaF,5689,CogB,/home/chymera/.scratch/drlfom/dw_l1_seed/sub-5689/ses-ofMaF/sub-5689_ses-ofMaF_task-CogB_acq-EPI_run-0_cbv_pstat.nii.gz,Fluoxetine,0.6273229718208313,0.45439520478248596,10.178238868713379,0.6097941398620605,False,rapid breathing and whisker movement upon measurement conclusion (no signs of anesthetic mis-delivery)
6,EPI,cbv,/home/chymera/.scratch/drlfom/dw_l1_seed/sub-5689/ses-ofMcF1/sub-5689_ses-ofMcF1_task-CogB_acq-EPI_run-0_cbv_tstat.nii.gz,0,ofMcF1,5689,CogB,/home/chymera/.scratch/drlfom/dw_l1_seed/sub-5689/ses-ofMcF1/sub-5689_ses-ofMcF1_task-CogB_acq-EPI_run-0_cbv_pstat.nii.gz,Fluoxetine,0.23114097118377686,0.02786131203174591,8.998291969299316,0.4930242896080017,False,
7,EPI,cbv,/home/chymera/.scratch/drlfom/dw_l1_seed/sub-5689/ses-ofMcF2/sub-5689_ses-ofMcF2_task-CogB_acq-EPI_run-0_cbv_tstat.nii.gz,0,ofMcF2,5689,CogB,/home/chymera/.scratch/drlfom/dw_l1_seed/sub-5689/ses-ofMcF2/sub-5689_ses-ofMcF2_task-CogB_acq-EPI_run-0_cbv_pstat.nii.gz,Fluoxetine,-1.338025689125061,-1.3370174169540405,6.231718063354492,0.26436376571655273,False,
8,EPI,cbv,/home/chymera/.scratch/drlfom/dw_l1_seed/sub-5689/ses-ofMpF/sub-5689_ses-ofMpF_task-CogB_acq-EPI_run-0_cbv_tstat.nii.gz,0,ofMpF,5689,CogB,/home/chymera/.scratch/drlfom/dw_l1_seed/sub-5689/ses-ofMpF/sub-5689_ses-ofMpF_task-CogB_acq-EPI_run-0_cbv_pstat.nii.gz,Fluoxetine,-1.057285189628601,-0.9573215246200562,3.672236919403076,0.23373989760875702,False,
9,EPI,cbv,/home/chymera/.scratch/drlfom/dw_l1_seed/sub-5690/ses-ofM/sub-5690_ses-ofM_task-CogB_acq-EPI_run-0_cbv_tstat.nii.gz,0,ofM,5690,CogB,/home/chymera/.scratch/drlfom/dw_l1_seed/sub-5690/ses-ofM/sub-5690_ses-ofM_task-CogB_acq-EPI_run-0_cbv_pstat.nii.gz,Fluoxetine,-3.3752963542938232,-3.115278959274292,2.393045663833618,0.08488045632839203,False,
10,EPI,cbv,/home/chymera/.scratch/drlfom/dw_l1_seed/sub-5690/ses-ofMaF/sub-5690_ses-ofMaF_task-CogB_acq-EPI_run-0_cbv_tstat.nii.gz,0,ofMaF,5690,CogB,/home/chymera/.scratch/drlfom/dw_l1_seed/sub-5690/ses-ofMaF/sub-5690_ses-ofMaF_task-CogB_acq-EPI_run-0_cbv_pstat.nii.gz,Fluoxetine,-8.236001014709473,-7.927285671234131,1.8581852912902832,0.018686048686504364,False,
11,EPI,cbv,/home/chymera/.scratch/drlfom/dw_l1_seed/sub-5690/ses-ofMcF1/sub-5690_ses-ofMcF1_task-CogB_acq-EPI_run-0_cbv_tstat.nii.gz,0,ofMcF1,5690,CogB,/home/chymera/.scratch/drlfom/dw_l1_seed/sub-5690/ses-ofMcF1/sub-5690_ses-ofMcF1_task-CogB_acq-EPI_run-0_cbv_pstat.nii.gz,Fluoxetine,-4.457764625549316,-4.022578716278076,4.0923075675964355,0.10471763461828232,False,
12,EPI,cbv,/home/chymera/.scratch/drlfom/dw_l1_seed/sub-5690/ses-ofMcF2/sub-5690_ses-ofMcF2_task-CogB_acq-EPI_run-0_cbv_tstat.nii.gz,0,ofMcF2,5690,CogB,/home/chymera/.scratch/drlfom/dw_l1_seed/sub-5690/ses-ofMcF2/sub-5690_ses-ofMcF2_task-CogB_acq-EPI_run-0_cbv_pstat.nii.gz,Fluoxetine,-3.8036158084869385,-3.641909599304199,3.7913947105407715,0.09789933264255524,False,
13,EPI,cbv,/home/chymera/.scratch/drlfom/dw_l1_seed/sub-5690/ses-ofMpF/sub-5690_ses-ofMpF_task-CogB_acq-EPI_run-0_cbv_tstat.nii.gz,0,ofMpF,5690,CogB,/home/chymera/.scratch/drlfom/dw_l1_seed/sub-5690/ses-ofMpF/sub-5690_ses-ofMpF_task-CogB_acq-EPI_run-0_cbv_pstat.nii.gz,Fluoxetine,-0.9129886627197266,-0.8501474261283875,3.9979922771453857,0.24432046711444855,False,
14,EPI,cbv,/home/chymera/.scratch/drlfom/dw_l1_seed/sub-5691/ses-ofM/sub-5691_ses-ofM_task-CogB_acq-EPI_run-0_cbv_tstat.nii.gz,0,ofM,5691,CogB,/home/chymera/.scratch/drlfom/dw_l1_seed/sub-5691/ses-ofM/sub-5691_ses-ofM_task-CogB_acq-EPI_run-0_cbv_pstat.nii.gz,Vehicle,-2.0743861198425293,-1.8154748678207397,3.036170482635498,0.15975157916545868,False,
15,EPI,bold,/home/chymera/.scratch/drlfom/dw_l1_seed/sub-5691/ses-ofMaF/sub-5691_ses-ofMaF_task-CogB_acq-EPI_run-0_bold_tstat.nii.gz,0,ofMaF,5691,CogB,/home/chymera/.scratch/drlfom/dw_l1_seed/sub-5691/ses-ofMaF/sub-5691_ses-ofMaF_task-CogB_acq-EPI_run-0_bold_pstat.nii.gz,Vehicle,0.647185742855072,0.617993175983429,6.369326114654541,0.5519322752952576,False,"tail too short, unable to cannulate"
16,EPI,bold,/home/chymera/.scratch/drlfom/dw_l1_seed/sub-5691/ses-ofMcF1/sub-5691_ses-ofMcF1_task-CogB_acq-EPI_run-0_bold_tstat.nii.gz,0,ofMcF1,5691,CogB,/home/chymera/.scratch/drlfom/dw_l1_seed/sub-5691/ses-ofMcF1/sub-5691_ses-ofMcF1_task-CogB_acq-EPI_run-0_bold_pstat.nii.gz,Fluoxetine,1.2345964908599854,1.1854922771453857,10.041366577148438,0.7582787275314331,False,"tail too short, unable to cannulate"
17,EPI,cbv,/home/chymera/.scratch/drlfom/dw_l1_seed/sub-5691/ses-ofMcF2/sub-5691_ses-ofMcF2_task-CogB_acq-EPI_run-0_cbv_tstat.nii.gz,0,ofMcF2,5691,CogB,/home/chymera/.scratch/drlfom/dw_l1_seed/sub-5691/ses-ofMcF2/sub-5691_ses-ofMcF2_task-CogB_acq-EPI_run-0_cbv_pstat.nii.gz,Fluoxetine,-2.1026766300201416,-1.9103721380233765,2.4143478870391846,0.15329641103744507,False,
18,EPI,bold,/home/chymera/.scratch/drlfom/dw_l1_seed/sub-5691/ses-ofMpF/sub-5691_ses-ofMpF_task-CogB_acq-EPI_run-0_bold_tstat.nii.gz,0,ofMpF,5691,CogB,/home/chymera/.scratch/drlfom/dw_l1_seed/sub-5691/ses-ofMpF/sub-5691_ses-ofMpF_task-CogB_acq-EPI_run-0_bold_pstat.nii.gz,Fluoxetine,0.4090384244918823,0.3985838294029236,7.242137432098389,0.49642810225486755,True,incomplete Endorem delivery
19,EPI,cbv,/home/chymera/.scratch/drlfom/dw_l1_seed/sub-5692/ses-ofM/sub-5692_ses-ofM_task-CogB_acq-EPI_run-0_cbv_tstat.nii.gz,0,ofM,5692,CogB,/home/chymera/.scratch/drlfom/dw_l1_seed/sub-5692/ses-ofM/sub-5692_ses-ofM_task-CogB_acq-EPI_run-0_cbv_pstat.nii.gz,Vehicle,0.029754843562841415,0.035104330629110336,5.111155986785889,0.3963983356952667,False,
20,EPI,bold,/home/chymera/.scratch/drlfom/dw_l1_seed/sub-5692/ses-ofMaF/sub-5692_ses-ofMaF_task-CogB_acq-EPI_run-0_bold_tstat.nii.gz,0,ofMaF,5692,CogB,/home/chymera/.scratch/drlfom/dw_l1_seed/sub-5692/ses-ofMaF/sub-5692_ses-ofMaF_task-CogB_acq-EPI_run-0_bold_pstat.nii.gz,Vehicle,0.09779025614261627,0.09270811080932617,5.090884208679199,0.4021139144897461,False,unable to cannulate; ICA failed to indicate response to stimulus
21,EPI,cbv,/home/chymera/.scratch/drlfom/dw_l1_seed/sub-5692/ses-ofMcF1/sub-5692_ses-ofMcF1_task-CogB_acq-EPI_run-0_cbv_tstat.nii.gz,0,ofMcF1,5692,CogB,/home/chymera/.scratch/drlfom/dw_l1_seed/sub-5692/ses-ofMcF1/sub-5692_ses-ofMcF1_task-CogB_acq-EPI_run-0_cbv_pstat.nii.gz,Vehicle,0.024061433970928192,0.02996165305376053,5.288956165313721,0.3965736925601959,False,ICA failed to indicate response to stimulus
22,EPI,cbv,/home/chymera/.scratch/drlfom/dw_l1_seed/sub-5692/ses-ofMcF2/sub-5692_ses-ofMcF2_task-CogB_acq-EPI_run-0_cbv_tstat.nii.gz,0,ofMcF2,5692,CogB,/home/chymera/.scratch/drlfom/dw_l1_seed/sub-5692/ses-ofMcF2/sub-5692_ses-ofMcF2_task-CogB_acq-EPI_run-0_cbv_pstat.nii.gz,Vehicle,0.23682111501693726,0.23819150030612946,6.274599075317383,0.44842565059661865,False,
23,EPI,cbv,/home/chymera/.scratch/drlfom/dw_l1_seed/sub-5692/ses-ofMpF/sub-5692_ses-ofMpF_task-CogB_acq-EPI_run-0_cbv_tstat.nii.gz,0,ofMpF,5692,CogB,/home/chymera/.scratch/drlfom/dw_l1_seed/sub-5692/ses-ofMpF/sub-5692_ses-ofMpF_task-CogB_acq-EPI_run-0_cbv_pstat.nii.gz,Vehicle,0.034410685300827026,0.028261905536055565,6.177703857421875,0.40267232060432434,False,
24,EPI,cbv,/home/chymera/.scratch/drlfom/dw_l1_seed/sub-5694/ses-ofM/sub-5694_ses-ofM_task-CogB_acq-EPI_run-0_cbv_tstat.nii.gz,0,ofM,5694,CogB,/home/chymera/.scratch/drlfom/dw_l1_seed/sub-5694/ses-ofM/sub-5694_ses-ofM_task-CogB_acq-EPI_run-0_cbv_pstat.nii.gz,Vehicle,-1.7887128591537476,-1.6277793645858765,2.712970733642578,0.16442160308361053,False,injected saline into failed cannulation site
25,EPI,cbv,/home/chymera/.scratch/drlfom/dw_l1_seed/sub-5694/ses-ofMaF/sub-5694_ses-ofMaF_task-CogB_acq-EPI_run-0_cbv_tstat.nii.gz,0,ofMaF,5694,CogB,/home/chymera/.scratch/drlfom/dw_l1_seed/sub-5694/ses-ofMaF/sub-5694_ses-ofMaF_task-CogB_acq-EPI_run-0_cbv_pstat.nii.gz,Vehicle,-1.2475254535675049,-1.1206556558609009,3.1667654514312744,0.20948785543441772,False,
26,EPI,cbv,/home/chymera/.scratch/drlfom/dw_l1_seed/sub-5694/ses-ofMcF1/sub-5694_ses-ofMcF1_task-CogB_acq-EPI_run-0_cbv_tstat.nii.gz,0,ofMcF1,5694,CogB,/home/chymera/.scratch/drlfom/dw_l1_seed/sub-5694/ses-ofMcF1/sub-5694_ses-ofMcF1_task-CogB_acq-EPI_run-0_cbv_pstat.nii.gz,Vehicle,-0.9457929134368896,-0.833651602268219,3.8677544593811035,0.23969219624996185,True,slightly incomplete Endorem delivery
27,EPI,cbv,/home/chymera/.scratch/drlfom/dw_l1_seed/sub-5694/ses-ofMcF2/sub-5694_ses-ofMcF2_task-CogB_acq-EPI_run-0_cbv_tstat.nii.gz,0,ofMcF2,5694,CogB,/home/chymera/.scratch/drlfom/dw_l1_seed/sub-5694/ses-ofMcF2/sub-5694_ses-ofMcF2_task-CogB_acq-EPI_run-0_cbv_pstat.nii.gz,Vehicle,-0.29709547758102417,-0.2853132486343384,4.65886926651001,0.3286738693714142,False,
28,EPI,cbv,/home/chymera/.scratch/drlfom/dw_l1_seed/sub-5694/ses-ofMpF/sub-5694_ses-ofMpF_task-CogB_acq-EPI_run-0_cbv_tstat.nii.gz,0,ofMpF,5694,CogB,/home/chymera/.scratch/drlfom/dw_l1_seed/sub-5694/ses-ofMpF/sub-5694_ses-ofMpF_task-CogB_acq-EPI_run-0_cbv_pstat.nii.gz,Vehicle,-0.878007709980011,-0.8316570520401001,3.518003225326538,0.23888179659843445,False,
29,EPI,cbv,/home/chymera/.scratch/drlfom/dw_l1_seed/sub-5700/ses-ofM/sub-5700_ses-ofM_task-CogB_acq-EPI_run-0_cbv_tstat.nii.gz,0,ofM,5700,CogB,/home/chymera/.scratch/drlfom/dw_l1_seed/sub-5700/ses-ofM/sub-5700_ses-ofM_task-CogB_acq-EPI_run-0_cbv_pstat.nii.gz,Fluoxetine,-0.8264229893684387,-0.7469242215156555,4.373315334320068,0.26592355966567993,False,ICA failed to indicate response to stimulus
30,EPI,cbv,/home/chymera/.scratch/drlfom/dw_l1_seed/sub-5700/ses-ofMaF/sub-5700_ses-ofMaF_task-CogB_acq-EPI_run-0_cbv_tstat.nii.gz,0,ofMaF,5700,CogB,/home/chymera/.scratch/drlfom/dw_l1_seed/sub-5700/ses-ofMaF/sub-5700_ses-ofMaF_task-CogB_acq-EPI_run-0_cbv_pstat.nii.gz,Fluoxetine,-1.760870337486267,-1.6483362913131714,2.952993869781494,0.16175827383995056,False,"re-ran adjustments after endorem administration, total delay ~20min"
31,EPI,cbv,/home/chymera/.scratch/drlfom/dw_l1_seed/sub-5700/ses-ofMcF1/sub-5700_ses-ofMcF1_task-CogB_acq-EPI_run-0_cbv_tstat.nii.gz,0,ofMcF1,5700,CogB,/home/chymera/.scratch/drlfom/dw_l1_seed/sub-5700/ses-ofMcF1/sub-5700_ses-ofMcF1_task-CogB_acq-EPI_run-0_cbv_pstat.nii.gz,Fluoxetine,-1.0461077690124512,-0.9917661547660828,4.5208282470703125,0.2437819540500641,False,
32,EPI,cbv,/home/chymera/.scratch/drlfom/dw_l1_seed/sub-5700/ses-ofMcF2/sub-5700_ses-ofMcF2_task-CogB_acq-EPI_run-0_cbv_tstat.nii.gz,0,ofMcF2,5700,CogB,/home/chymera/.scratch/drlfom/dw_l1_seed/sub-5700/ses-ofMcF2/sub-5700_ses-ofMcF2_task-CogB_acq-EPI_run-0_cbv_pstat.nii.gz,Fluoxetine,-0.5754105448722839,-0.5127118825912476,5.164666175842285,0.31203141808509827,False,
33,EPI,cbv,/home/chymera/.scratch/drlfom/dw_l1_seed/sub-5700/ses-ofMpF/sub-5700_ses-ofMpF_task-CogB_acq-EPI_run-0_cbv_tstat.nii.gz,0,ofMpF,5700,CogB,/home/chymera/.scratch/drlfom/dw_l1_seed/sub-5700/ses-ofMpF/sub-5700_ses-ofMpF_task-CogB_acq-EPI_run-0_cbv_pstat.nii.gz,Fluoxetine,-0.02398640476167202,0.010011092759668827,5.305773735046387,0.400125652551651,False,
34,EPI,cbv,/home/chymera/.scratch/drlfom/dw_l1_seed/sub-5704/ses-ofM/sub-5704_ses-ofM_task-CogB_acq-EPI_run-0_cbv_tstat.nii.gz,0,ofM,5704,CogB,/home/chymera/.scratch/drlfom/dw_l1_seed/sub-5704/ses-ofM/sub-5704_ses-ofM_task-CogB_acq-EPI_run-0_cbv_pstat.nii.gz,Vehicle,0.08476419746875763,0.09432832896709442,4.808209419250488,0.4083363711833954,False,"blinking and occasional, slight paw movement upon measurement conclusion (no signs of anesthetic mis-delivery); ICA failed to indicate response to stimulus"
35,EPI,cbv,/home/chymera/.scratch/drlfom/dw_l1_seed/sub-5704/ses-ofMaF/sub-5704_ses-ofMaF_task-CogB_acq-EPI_run-0_cbv_tstat.nii.gz,0,ofMaF,5704,CogB,/home/chymera/.scratch/drlfom/dw_l1_seed/sub-5704/ses-ofMaF/sub-5704_ses-ofMaF_task-CogB_acq-EPI_run-0_cbv_pstat.nii.gz,Vehicle,-0.04655134677886963,-0.01073423121124506,6.481575012207031,0.4027039408683777,False,ICA failed to indicate response to stimulus
36,EPI,cbv,/home/chymera/.scratch/drlfom/dw_l1_seed/sub-5704/ses-ofMcF1/sub-5704_ses-ofMcF1_task-CogB_acq-EPI_run-0_cbv_tstat.nii.gz,0,ofMcF1,5704,CogB,/home/chymera/.scratch/drlfom/dw_l1_seed/sub-5704/ses-ofMcF1/sub-5704_ses-ofMcF1_task-CogB_acq-EPI_run-0_cbv_pstat.nii.gz,Vehicle,-0.14458374679088593,-0.1648477017879486,4.9605302810668945,0.3524491488933563,False,ICA failed to indicate response to stimulus
37,EPI,cbv,/home/chymera/.scratch/drlfom/dw_l1_seed/sub-5704/ses-ofMcF2/sub-5704_ses-ofMcF2_task-CogB_acq-EPI_run-0_cbv_tstat.nii.gz,0,ofMcF2,5704,CogB,/home/chymera/.scratch/drlfom/dw_l1_seed/sub-5704/ses-ofMcF2/sub-5704_ses-ofMcF2_task-CogB_acq-EPI_run-0_cbv_pstat.nii.gz,Vehicle,-0.061108313500881195,-0.052538469433784485,5.200004577636719,0.3790915310382843,False,ICA failed to indicate response to stimulus; fMRI started 15 minutes later than the usual delay after contrast agent administration; laser turned on for at least a minute during scan; no subsequent stimulation
38,EPI,cbv,/home/chymera/.scratch/drlfom/dw_l1_seed/sub-5704/ses-ofMpF/sub-5704_ses-ofMpF_task-CogB_acq-EPI_run-0_cbv_tstat.nii.gz,0,ofMpF,5704,CogB,/home/chymera/.scratch/drlfom/dw_l1_seed/sub-5704/ses-ofMpF/sub-5704_ses-ofMpF_task-CogB_acq-EPI_run-0_cbv_pstat.nii.gz,Vehicle,-0.014116121456027031,0.0013112988090142608,5.317739009857178,0.3919782042503357,False,ICA failed to indicate response to stimulus
39,EPI,cbv,/home/chymera/.scratch/drlfom/dw_l1_seed/sub-5706/ses-ofM/sub-5706_ses-ofM_task-CogB_acq-EPI_run-0_cbv_tstat.nii.gz,0,ofM,5706,CogB,/home/chymera/.scratch/drlfom/dw_l1_seed/sub-5706/ses-ofM/sub-5706_ses-ofM_task-CogB_acq-EPI_run-0_cbv_pstat.nii.gz,Vehicle,-2.0725927352905273,-1.720908522605896,3.365751028060913,0.1758376508951187,False,
40,EPI,cbv,/home/chymera/.scratch/drlfom/dw_l1_seed/sub-5706/ses-ofMaF/sub-5706_ses-ofMaF_task-CogB_acq-EPI_run-0_cbv_tstat.nii.gz,0,ofMaF,5706,CogB,/home/chymera/.scratch/drlfom/dw_l1_seed/sub-5706/ses-ofMaF/sub-5706_ses-ofMaF_task-CogB_acq-EPI_run-0_cbv_pstat.nii.gz,Vehicle,-2.5698578357696533,-2.195474624633789,2.8452725410461426,0.13794714212417603,False,
41,EPI,cbv,/home/chymera/.scratch/drlfom/dw_l1_seed/sub-5706/ses-ofMcF1/sub-5706_ses-ofMcF1_task-CogB_acq-EPI_run-0_cbv_tstat.nii.gz,0,ofMcF1,5706,CogB,/home/chymera/.scratch/drlfom/dw_l1_seed/sub-5706/ses-ofMcF1/sub-5706_ses-ofMcF1_task-CogB_acq-EPI_run-0_cbv_pstat.nii.gz,Vehicle,-1.9801034927368164,-1.690266489982605,3.1159660816192627,0.1766687035560608,False,
42,EPI,cbv,/home/chymera/.scratch/drlfom/dw_l1_seed/sub-5706/ses-ofMcF2/sub-5706_ses-ofMcF2_task-CogB_acq-EPI_run-0_cbv_tstat.nii.gz,0,ofMcF2,5706,CogB,/home/chymera/.scratch/drlfom/dw_l1_seed/sub-5706/ses-ofMcF2/sub-5706_ses-ofMcF2_task-CogB_acq-EPI_run-0_cbv_pstat.nii.gz,Vehicle,-0.973111093044281,-0.8210506439208984,4.970013618469238,0.27479657530784607,False,
43,EPI,cbv,/home/chymera/.scratch/drlfom/dw_l1_seed/sub-5706/ses-ofMpF/sub-5706_ses-ofMpF_task-CogB_acq-EPI_run-0_cbv_tstat.nii.gz,0,ofMpF,5706,CogB,/home/chymera/.scratch/drlfom/dw_l1_seed/sub-5706/ses-ofMpF/sub-5706_ses-ofMpF_task-CogB_acq-EPI_run-0_cbv_pstat.nii.gz,Vehicle,-1.031156063079834,-0.9363297820091248,3.8873860836029053,0.24318070709705353,False,
44,EPI,cbv,/home/chymera/.scratch/drlfom/dw_l1_seed/sub-6255/ses-ofM/sub-6255_ses-ofM_task-CogB_acq-EPI_run-0_cbv_tstat.nii.gz,0,ofM,6255,CogB,/home/chymera/.scratch/drlfom/dw_l1_seed/sub-6255/ses-ofM/sub-6255_ses-ofM_task-CogB_acq-EPI_run-0_cbv_pstat.nii.gz,Vehicle,-1.3949857950210571,-1.1851818561553955,3.5945849418640137,0.21519486606121063,False,
45,EPI,cbv,/home/chymera/.scratch/drlfom/dw_l1_seed/sub-6255/ses-ofMaF/sub-6255_ses-ofMaF_task-CogB_acq-EPI_run-0_cbv_tstat.nii.gz,0,ofMaF,6255,CogB,/home/chymera/.scratch/drlfom/dw_l1_seed/sub-6255/ses-ofMaF/sub-6255_ses-ofMaF_task-CogB_acq-EPI_run-0_cbv_pstat.nii.gz,Vehicle,-0.6935762763023376,-0.6509464383125305,3.9869630336761475,0.26459550857543945,False,
46,EPI,cbv,/home/chymera/.scratch/drlfom/dw_l1_seed/sub-6255/ses-ofMcF1/sub-6255_ses-ofMcF1_task-CogB_acq-EPI_run-0_cbv_tstat.nii.gz,0,ofMcF1,6255,CogB,/home/chymera/.scratch/drlfom/dw_l1_seed/sub-6255/ses-ofMcF1/sub-6255_ses-ofMcF1_task-CogB_acq-EPI_run-0_cbv_pstat.nii.gz,Vehicle,-0.9437074661254883,-0.869550883769989,2.431795597076416,0.24149641394615173,False,
47,EPI,cbv,/home/chymera/.scratch/drlfom/dw_l1_seed/sub-6255/ses-ofMcF2/sub-6255_ses-ofMcF2_task-CogB_acq-EPI_run-0_cbv_tstat.nii.gz,0,ofMcF2,6255,CogB,/home/chymera/.scratch/drlfom/dw_l1_seed/sub-6255/ses-ofMcF2/sub-6255_ses-ofMcF2_task-CogB_acq-EPI_run-0_cbv_pstat.nii.gz,Vehicle,-0.6174750328063965,-0.5518936514854431,4.483327388763428,0.2884187400341034,False,
48,EPI,cbv,/home/chymera/.scratch/drlfom/dw_l1_seed/sub-6262/ses-ofMcF1/sub-6262_ses-ofMcF1_task-CogB_acq-EPI_run-0_cbv_tstat.nii.gz,0,ofMcF1,6262,CogB,/home/chymera/.scratch/drlfom/dw_l1_seed/sub-6262/ses-ofMcF1/sub-6262_ses-ofMcF1_task-CogB_acq-EPI_run-0_cbv_pstat.nii.gz,Vehicle,-0.3304595351219177,-0.29496079683303833,5.641415119171143,0.34380438923835754,False,
49,EPI,cbv,/home/chymera/.scratch/drlfom/dw_l1_seed/sub-6262/ses-ofMcF2/sub-6262_ses-ofMcF2_task-CogB_acq-EPI_run-0_cbv_tstat.nii.gz,0,ofMcF2,6262,CogB,/home/chymera/.scratch/drlfom/dw_l1_seed/sub-6262/ses-ofMcF2/sub-6262_ses-ofMcF2_task-CogB_acq-EPI_run-0_cbv_pstat.nii.gz,Vehicle,-0.8961501121520996,-0.8434938788414001,4.0984625816345215,0.24414636194705963,False,
50,EPI,cbv,/home/chymera/.scratch/drlfom/dw_l1_seed/sub-6262/ses-ofMpF/sub-6262_ses-ofMpF_task-CogB_acq-EPI_run-0_cbv_tstat.nii.gz,0,ofMpF,6262,CogB,/home/chymera/.scratch/drlfom/dw_l1_seed/sub-6262/ses-ofMpF/sub-6262_ses-ofMpF_task-CogB_acq-EPI_run-0_cbv_pstat.nii.gz,Vehicle,-0.35980406403541565,-0.34904807806015015,5.450300693511963,0.33092525601387024,False,
51,EPI,cbv,/home/chymera/.scratch/drlfom/dw_l1_seed/sub-6455/ses-ofM/sub-6455_ses-ofM_task-CogB_acq-EPI_run-0_cbv_tstat.nii.gz,0,ofM,6455,CogB,/home/chymera/.scratch/drlfom/dw_l1_seed/sub-6455/ses-ofM/sub-6455_ses-ofM_task-CogB_acq-EPI_run-0_cbv_pstat.nii.gz,Vehicle,-0.9738398790359497,-0.8468592762947083,4.0763068199157715,0.2479933500289917,False,"blinking and occasional, slight paw movement upon measurement conclusion (no signs of anesthetic mis-delivery)"
52,EPI,cbv,/home/chymera/.scratch/drlfom/dw_l1_seed/sub-6455/ses-ofMaF/sub-6455_ses-ofMaF_task-CogB_acq-EPI_run-0_cbv_tstat.nii.gz,0,ofMaF,6455,CogB,/home/chymera/.scratch/drlfom/dw_l1_seed/sub-6455/ses-ofMaF/sub-6455_ses-ofMaF_task-CogB_acq-EPI_run-0_cbv_pstat.nii.gz,Vehicle,-0.921166718006134,-0.7749524116516113,3.9760875701904297,0.27036112546920776,False,
53,EPI,cbv,/home/chymera/.scratch/drlfom/dw_l1_seed/sub-6455/ses-ofMcF1/sub-6455_ses-ofMcF1_task-CogB_acq-EPI_run-0_cbv_tstat.nii.gz,0,ofMcF1,6455,CogB,/home/chymera/.scratch/drlfom/dw_l1_seed/sub-6455/ses-ofMcF1/sub-6455_ses-ofMcF1_task-CogB_acq-EPI_run-0_cbv_pstat.nii.gz,Vehicle,-0.6545950770378113,-0.5814577341079712,4.325332164764404,0.2819216549396515,False,
54,EPI,cbv,/home/chymera/.scratch/drlfom/dw_l1_seed/sub-6455/ses-ofMcF2/sub-6455_ses-ofMcF2_task-CogB_acq-EPI_run-0_cbv_tstat.nii.gz,0,ofMcF2,6455,CogB,/home/chymera/.scratch/drlfom/dw_l1_seed/sub-6455/ses-ofMcF2/sub-6455_ses-ofMcF2_task-CogB_acq-EPI_run-0_cbv_pstat.nii.gz,Vehicle,-0.7526880502700806,-0.6952474117279053,4.255408763885498,0.27160513401031494,False,
55,EPI,cbv,/home/chymera/.scratch/drlfom/dw_l1_seed/sub-6455/ses-ofMpF/sub-6455_ses-ofMpF_task-CogB_acq-EPI_run-0_cbv_tstat.nii.gz,0,ofMpF,6455,CogB,/home/chymera/.scratch/drlfom/dw_l1_seed/sub-6455/ses-ofMpF/sub-6455_ses-ofMpF_task-CogB_acq-EPI_run-0_cbv_pstat.nii.gz,Vehicle,-0.6204057931900024,-0.5761986970901489,4.20652961730957,0.2807762324810028,False,
56,EPI,cbv,/home/chymera/.scratch/drlfom/dw_l1_seed/sub-6456/ses-ofM/sub-6456_ses-ofM_task-CogB_acq-EPI_run-0_cbv_tstat.nii.gz,0,ofM,6456,CogB,/home/chymera/.scratch/drlfom/dw_l1_seed/sub-6456/ses-ofM/sub-6456_ses-ofM_task-CogB_acq-EPI_run-0_cbv_pstat.nii.gz,Fluoxetine,-1.6708532571792603,-1.5344982147216797,3.5782673358917236,0.19196951389312744,False,
57,EPI,cbv,/home/chymera/.scratch/drlfom/dw_l1_seed/sub-6456/ses-ofMaF/sub-6456_ses-ofMaF_task-CogB_acq-EPI_run-0_cbv_tstat.nii.gz,0,ofMaF,6456,CogB,/home/chymera/.scratch/drlfom/dw_l1_seed/sub-6456/ses-ofMaF/sub-6456_ses-ofMaF_task-CogB_acq-EPI_run-0_cbv_pstat.nii.gz,Fluoxetine,-4.929814338684082,-4.514564514160156,2.161123752593994,0.057480886578559875,False,
58,EPI,cbv,/home/chymera/.scratch/drlfom/dw_l1_seed/sub-6456/ses-ofMcF1/sub-6456_ses-ofMcF1_task-CogB_acq-EPI_run-0_cbv_tstat.nii.gz,0,ofMcF1,6456,CogB,/home/chymera/.scratch/drlfom/dw_l1_seed/sub-6456/ses-ofMcF1/sub-6456_ses-ofMcF1_task-CogB_acq-EPI_run-0_cbv_pstat.nii.gz,Fluoxetine,-3.1703977584838867,-2.91985821723938,2.8224992752075195,0.09846270084381104,False,
59,EPI,cbv,/home/chymera/.scratch/drlfom/dw_l1_seed/sub-6456/ses-ofMcF2/sub-6456_ses-ofMcF2_task-CogB_acq-EPI_run-0_cbv_tstat.nii.gz,0,ofMcF2,6456,CogB,/home/chymera/.scratch/drlfom/dw_l1_seed/sub-6456/ses-ofMcF2/sub-6456_ses-ofMcF2_task-CogB_acq-EPI_run-0_cbv_pstat.nii.gz,Fluoxetine,-1.607799768447876,-1.5490494966506958,6.348621845245361,0.26933377981185913,False,
60,EPI,cbv,/home/chymera/.scratch/drlfom/dw_l1_seed/sub-6456/ses-ofMpF/sub-6456_ses-ofMpF_task-CogB_acq-EPI_run-0_cbv_tstat.nii.gz,0,ofMpF,6456,CogB,/home/chymera/.scratch/drlfom/dw_l1_seed/sub-6456/ses-ofMpF/sub-6456_ses-ofMpF_task-CogB_acq-EPI_run-0_cbv_pstat.nii.gz,Fluoxetine,-1.288045883178711,-1.1793020963668823,3.921794891357422,0.2167986035346985,False,
61,EPI,cbv,/home/chymera/.scratch/drlfom/dw_l1_seed/sub-6459/ses-ofM/sub-6459_ses-ofM_task-CogB_acq-EPI_run-0_cbv_tstat.nii.gz,0,ofM,6459,CogB,/home/chymera/.scratch/drlfom/dw_l1_seed/sub-6459/ses-ofM/sub-6459_ses-ofM_task-CogB_acq-EPI_run-0_cbv_pstat.nii.gz,Vehicle,-1.5015814304351807,-1.26084566116333,3.2915945053100586,0.20326167345046997,False,
62,EPI,cbv,/home/chymera/.scratch/drlfom/dw_l1_seed/sub-6459/ses-ofMaF/sub-6459_ses-ofMaF_task-CogB_acq-EPI_run-0_cbv_tstat.nii.gz,0,ofMaF,6459,CogB,/home/chymera/.scratch/drlfom/dw_l1_seed/sub-6459/ses-ofMaF/sub-6459_ses-ofMaF_task-CogB_acq-EPI_run-0_cbv_pstat.nii.gz,Vehicle,-1.6348297595977783,-1.481139898300171,2.9459285736083984,0.18489131331443787,False,
63,EPI,cbv,/home/chymera/.scratch/drlfom/dw_l1_seed/sub-6459/ses-ofMcF1/sub-6459_ses-ofMcF1_task-CogB_acq-EPI_run-0_cbv_tstat.nii.gz,0,ofMcF1,6459,CogB,/home/chymera/.scratch/drlfom/dw_l1_seed/sub-6459/ses-ofMcF1/sub-6459_ses-ofMcF1_task-CogB_acq-EPI_run-0_cbv_pstat.nii.gz,Vehicle,-0.6847629547119141,-0.6195802688598633,3.9698424339294434,0.28185713291168213,False,
64,EPI,cbv,/home/chymera/.scratch/drlfom/dw_l1_seed/sub-6459/ses-ofMcF2/sub-6459_ses-ofMcF2_task-CogB_acq-EPI_run-0_cbv_tstat.nii.gz,0,ofMcF2,6459,CogB,/home/chymera/.scratch/drlfom/dw_l1_seed/sub-6459/ses-ofMcF2/sub-6459_ses-ofMcF2_task-CogB_acq-EPI_run-0_cbv_pstat.nii.gz,Vehicle,-1.0002772808074951,-0.9205793142318726,3.3767199516296387,0.23562881350517273,False,
65,EPI,cbv,/home/chymera/.scratch/drlfom/dw_l1_seed/sub-6459/ses-ofMpF/sub-6459_ses-ofMpF_task-CogB_acq-EPI_run-0_cbv_tstat.nii.gz,0,ofMpF,6459,CogB,/home/chymera/.scratch/drlfom/dw_l1_seed/sub-6459/ses-ofMpF/sub-6459_ses-ofMpF_task-CogB_acq-EPI_run-0_cbv_pstat.nii.gz,Vehicle,-0.4035305380821228,-0.3928622007369995,4.808863162994385,0.30906301736831665,False,
66,EPI,cbv,/home/chymera/.scratch/drlfom/dw_l1_seed/sub-6460/ses-ofM/sub-6460_ses-ofM_task-CogB_acq-EPI_run-0_cbv_tstat.nii.gz,0,ofM,6460,CogB,/home/chymera/.scratch/drlfom/dw_l1_seed/sub-6460/ses-ofM/sub-6460_ses-ofM_task-CogB_acq-EPI_run-0_cbv_pstat.nii.gz,Fluoxetine,-1.479127287864685,-1.3432199954986572,3.2694690227508545,0.18777549266815186,False,
67,EPI,cbv,/home/chymera/.scratch/drlfom/dw_l1_seed/sub-6460/ses-ofMaF/sub-6460_ses-ofMaF_task-CogB_acq-EPI_run-0_cbv_tstat.nii.gz,0,ofMaF,6460,CogB,/home/chymera/.scratch/drlfom/dw_l1_seed/sub-6460/ses-ofMaF/sub-6460_ses-ofMaF_task-CogB_acq-EPI_run-0_cbv_pstat.nii.gz,Fluoxetine,-2.8037126064300537,-2.659904718399048,2.2019262313842773,0.0991307869553566,False,pushed Endorem in with air
68,EPI,cbv,/home/chymera/.scratch/drlfom/dw_l1_seed/sub-6460/ses-ofMcF1/sub-6460_ses-ofMcF1_task-CogB_acq-EPI_run-0_cbv_tstat.nii.gz,0,ofMcF1,6460,CogB,/home/chymera/.scratch/drlfom/dw_l1_seed/sub-6460/ses-ofMcF1/sub-6460_ses-ofMcF1_task-CogB_acq-EPI_run-0_cbv_pstat.nii.gz,Fluoxetine,-0.614748477935791,-0.5791980624198914,4.359675407409668,0.28614306449890137,True,incomplete Endorem delivery
69,EPI,bold,/home/chymera/.scratch/drlfom/dw_l1_seed/sub-6460/ses-ofMcF2/sub-6460_ses-ofMcF2_task-CogB_acq-EPI_run-0_bold_tstat.nii.gz,0,ofMcF2,6460,CogB,/home/chymera/.scratch/drlfom/dw_l1_seed/sub-6460/ses-ofMcF2/sub-6460_ses-ofMcF2_task-CogB_acq-EPI_run-0_bold_pstat.nii.gz,Fluoxetine,1.2454111576080322,1.218945860862732,8.983457565307617,0.7514666318893433,False,
70,EPI,cbv,/home/chymera/.scratch/drlfom/dw_l1_seed/sub-6461/ses-ofM/sub-6461_ses-ofM_task-CogB_acq-EPI_run-0_cbv_tstat.nii.gz,0,ofM,6461,CogB,/home/chymera/.scratch/drlfom/dw_l1_seed/sub-6461/ses-ofM/sub-6461_ses-ofM_task-CogB_acq-EPI_run-0_cbv_pstat.nii.gz,Fluoxetine,-1.0036296844482422,-0.8860539793968201,4.107754230499268,0.24965709447860718,False,
71,EPI,cbv,/home/chymera/.scratch/drlfom/dw_l1_seed/sub-6461/ses-ofMaF/sub-6461_ses-ofMaF_task-CogB_acq-EPI_run-0_cbv_tstat.nii.gz,0,ofMaF,6461,CogB,/home/chymera/.scratch/drlfom/dw_l1_seed/sub-6461/ses-ofMaF/sub-6461_ses-ofMaF_task-CogB_acq-EPI_run-0_cbv_pstat.nii.gz,Fluoxetine,-0.031074300408363342,-0.030736548826098442,5.939462661743164,0.4033344089984894,True,maintained isoflurane at 1.5%% during measurement
72,EPI,cbv,/home/chymera/.scratch/drlfom/dw_l1_seed/sub-6461/ses-ofMcF1/sub-6461_ses-ofMcF1_task-CogB_acq-EPI_run-0_cbv_tstat.nii.gz,0,ofMcF1,6461,CogB,/home/chymera/.scratch/drlfom/dw_l1_seed/sub-6461/ses-ofMcF1/sub-6461_ses-ofMcF1_task-CogB_acq-EPI_run-0_cbv_pstat.nii.gz,Fluoxetine,-1.8580342531204224,-1.7058515548706055,2.6390902996063232,0.16286735236644745,False,
73,EPI,cbv,/home/chymera/.scratch/drlfom/dw_l1_seed/sub-6461/ses-ofMcF2/sub-6461_ses-ofMcF2_task-CogB_acq-EPI_run-0_cbv_tstat.nii.gz,0,ofMcF2,6461,CogB,/home/chymera/.scratch/drlfom/dw_l1_seed/sub-6461/ses-ofMcF2/sub-6461_ses-ofMcF2_task-CogB_acq-EPI_run-0_cbv_pstat.nii.gz,Fluoxetine,-1.1606146097183228,-1.1031534671783447,3.332624912261963,0.21592754125595093,False,
74,EPI,cbv,/home/chymera/.scratch/drlfom/dw_l1_seed/sub-6461/ses-ofMpF/sub-6461_ses-ofMpF_task-CogB_acq-EPI_run-0_cbv_tstat.nii.gz,0,ofMpF,6461,CogB,/home/chymera/.scratch/drlfom/dw_l1_seed/sub-6461/ses-ofMpF/sub-6461_ses-ofMpF_task-CogB_acq-EPI_run-0_cbv_pstat.nii.gz,Fluoxetine,-0.1658405363559723,-0.13780665397644043,5.54623556137085,0.36721619963645935,False,"blinking and occasional, slight paw movement upon measurement conclusion (no signs of anesthetic mis-delivery); implant detached right after measurement"
75,EPI,cbv,/home/chymera/.scratch/drlfom/dw_l1_seed/sub-6462/ses-ofM/sub-6462_ses-ofM_task-CogB_acq-EPI_run-0_cbv_tstat.nii.gz,0,ofM,6462,CogB,/home/chymera/.scratch/drlfom/dw_l1_seed/sub-6462/ses-ofM/sub-6462_ses-ofM_task-CogB_acq-EPI_run-0_cbv_pstat.nii.gz,Fluoxetine,-2.620795249938965,-2.2304279804229736,2.7370052337646484,0.1409008502960205,False,
76,EPI,cbv,/home/chymera/.scratch/drlfom/dw_l1_seed/sub-6462/ses-ofMaF/sub-6462_ses-ofMaF_task-CogB_acq-EPI_run-0_cbv_tstat.nii.gz,0,ofMaF,6462,CogB,/home/chymera/.scratch/drlfom/dw_l1_seed/sub-6462/ses-ofMaF/sub-6462_ses-ofMaF_task-CogB_acq-EPI_run-0_cbv_pstat.nii.gz,Fluoxetine,-1.0888408422470093,-0.8451342582702637,4.293549537658691,0.2679925560951233,False,"strongly lateralized response, uncommon given protocol; dental cement fixture slightly cracked, implant not loose"
77,EPI,bold,/home/chymera/.scratch/drlfom/dw_l1_seed/sub-6462/ses-ofMcF1/sub-6462_ses-ofMcF1_task-CogB_acq-EPI_run-0_bold_tstat.nii.gz,0,ofMcF1,6462,CogB,/home/chymera/.scratch/drlfom/dw_l1_seed/sub-6462/ses-ofMcF1/sub-6462_ses-ofMcF1_task-CogB_acq-EPI_run-0_bold_pstat.nii.gz,Fluoxetine,0.46579355001449585,0.45366910099983215,7.122570037841797,0.49074429273605347,False,
78,EPI,bold,/home/chymera/.scratch/drlfom/dw_l1_seed/sub-6462/ses-ofMcF2/sub-6462_ses-ofMcF2_task-CogB_acq-EPI_run-0_bold_tstat.nii.gz,0,ofMcF2,6462,CogB,/home/chymera/.scratch/drlfom/dw_l1_seed/sub-6462/ses-ofMcF2/sub-6462_ses-ofMcF2_task-CogB_acq-EPI_run-0_bold_pstat.nii.gz,Fluoxetine,0.31204095482826233,0.2896846532821655,6.537581443786621,0.4458782374858856,False,
79,EPI,cbv,/home/chymera/.scratch/drlfom/dw_l1_seed/sub-6530/ses-ofM/sub-6530_ses-ofM_task-CogB_acq-EPI_run-0_cbv_tstat.nii.gz,0,ofM,6530,CogB,/home/chymera/.scratch/drlfom/dw_l1_seed/sub-6530/ses-ofM/sub-6530_ses-ofM_task-CogB_acq-EPI_run-0_cbv_pstat.nii.gz,Fluoxetine,-0.6410704255104065,-0.6113735437393188,3.7466647624969482,0.27943140268325806,False,session timestamp recorded at induction to maintenance anesthesia switch
80,EPI,cbv,/home/chymera/.scratch/drlfom/dw_l1_seed/sub-6530/ses-ofMaF/sub-6530_ses-ofMaF_task-CogB_acq-EPI_run-0_cbv_tstat.nii.gz,0,ofMaF,6530,CogB,/home/chymera/.scratch/drlfom/dw_l1_seed/sub-6530/ses-ofMaF/sub-6530_ses-ofMaF_task-CogB_acq-EPI_run-0_cbv_pstat.nii.gz,Fluoxetine,-0.6039999127388,-0.575049102306366,3.374347448348999,0.275297611951828,False,
81,EPI,cbv,/home/chymera/.scratch/drlfom/dw_l1_seed/sub-6530/ses-ofMcF1/sub-6530_ses-ofMcF1_task-CogB_acq-EPI_run-0_cbv_tstat.nii.gz,0,ofMcF1,6530,CogB,/home/chymera/.scratch/drlfom/dw_l1_seed/sub-6530/ses-ofMcF1/sub-6530_ses-ofMcF1_task-CogB_acq-EPI_run-0_cbv_pstat.nii.gz,Fluoxetine,-0.9092990756034851,-0.8114206194877625,3.40716290473938,0.2505779266357422,False,
82,EPI,cbv,/home/chymera/.scratch/drlfom/dw_l1_seed/sub-6530/ses-ofMcF2/sub-6530_ses-ofMcF2_task-CogB_acq-EPI_run-0_cbv_tstat.nii.gz,0,ofMcF2,6530,CogB,/home/chymera/.scratch/drlfom/dw_l1_seed/sub-6530/ses-ofMcF2/sub-6530_ses-ofMcF2_task-CogB_acq-EPI_run-0_cbv_pstat.nii.gz,Fluoxetine,-0.8416933417320251,-0.769160807132721,4.222667217254639,0.2603727877140045,False,"rapid breathing, blinking, and whisker movement upon measurement conclusion (no signs of anesthetic mis-delivery)"
83,EPI,cbv,/home/chymera/.scratch/drlfom/dw_l1_seed/sub-6530/ses-ofMpF/sub-6530_ses-ofMpF_task-CogB_acq-EPI_run-0_cbv_tstat.nii.gz,0,ofMpF,6530,CogB,/home/chymera/.scratch/drlfom/dw_l1_seed/sub-6530/ses-ofMpF/sub-6530_ses-ofMpF_task-CogB_acq-EPI_run-0_cbv_pstat.nii.gz,Fluoxetine,-0.01586037315428257,0.031147301197052002,5.463664531707764,0.39869967103004456,False,"CBV fMRI post-Endorem delay 15 minutes longer than protocol; rapid breathing, blinking, flinching, and whisker movement upon measurement conclusion (no signs of anesthetic mis-delivery)"
84,EPI,cbv,/home/chymera/.scratch/drlfom/dw_l1_seed/sub-6532/ses-ofM/sub-6532_ses-ofM_task-CogB_acq-EPI_run-0_cbv_tstat.nii.gz,0,ofM,6532,CogB,/home/chymera/.scratch/drlfom/dw_l1_seed/sub-6532/ses-ofM/sub-6532_ses-ofM_task-CogB_acq-EPI_run-0_cbv_pstat.nii.gz,Vehicle,-0.2709457278251648,-0.24222083389759064,5.100349426269531,0.3444257378578186,False,"open female cages in close proximity prior to measurement; rapid breathing, blinking, and whisker movement upon measurement conclusion (no signs of anesthetic mis-delivery)"
85,EPI,cbv,/home/chymera/.scratch/drlfom/dw_l1_seed/sub-6532/ses-ofMaF/sub-6532_ses-ofMaF_task-CogB_acq-EPI_run-0_cbv_tstat.nii.gz,0,ofMaF,6532,CogB,/home/chymera/.scratch/drlfom/dw_l1_seed/sub-6532/ses-ofMaF/sub-6532_ses-ofMaF_task-CogB_acq-EPI_run-0_cbv_pstat.nii.gz,Vehicle,-0.5449470281600952,-0.5185686945915222,4.110633373260498,0.2871997654438019,False,flinching (signs of partial Medetomidine anesthesia mis-delivery)
86,EPI,cbv,/home/chymera/.scratch/drlfom/dw_l1_seed/sub-6532/ses-ofMcF1/sub-6532_ses-ofMcF1_task-CogB_acq-EPI_run-0_cbv_tstat.nii.gz,0,ofMcF1,6532,CogB,/home/chymera/.scratch/drlfom/dw_l1_seed/sub-6532/ses-ofMcF1/sub-6532_ses-ofMcF1_task-CogB_acq-EPI_run-0_cbv_pstat.nii.gz,Vehicle,-0.25780144333839417,-0.23864902555942535,4.751614093780518,0.33627453446388245,True,maintained isoflurane at 1.5%% during measurement
87,EPI,cbv,/home/chymera/.scratch/drlfom/dw_l1_seed/sub-6532/ses-ofMcF2/sub-6532_ses-ofMcF2_task-CogB_acq-EPI_run-0_cbv_tstat.nii.gz,0,ofMcF2,6532,CogB,/home/chymera/.scratch/drlfom/dw_l1_seed/sub-6532/ses-ofMcF2/sub-6532_ses-ofMcF2_task-CogB_acq-EPI_run-0_cbv_pstat.nii.gz,Vehicle,-0.18836957216262817,-0.1679135262966156,4.946747303009033,0.35315844416618347,False,
88,EPI,cbv,/home/chymera/.scratch/drlfom/dw_l1_seed/sub-6532/ses-ofMpF/sub-6532_ses-ofMpF_task-CogB_acq-EPI_run-0_cbv_tstat.nii.gz,0,ofMpF,6532,CogB,/home/chymera/.scratch/drlfom/dw_l1_seed/sub-6532/ses-ofMpF/sub-6532_ses-ofMpF_task-CogB_acq-EPI_run-0_cbv_pstat.nii.gz,Vehicle,-0.1857544183731079,-0.17213334143161774,5.092435836791992,0.35009604692459106,False,
89,EPI,cbv,/home/chymera/.scratch/drlfom/dw_l1_seed/sub-6542/ses-ofM/sub-6542_ses-ofM_task-CogB_acq-EPI_run-0_cbv_tstat.nii.gz,0,ofM,6542,CogB,/home/chymera/.scratch/drlfom/dw_l1_seed/sub-6542/ses-ofM/sub-6542_ses-ofM_task-CogB_acq-EPI_run-0_cbv_pstat.nii.gz,Fluoxetine,-2.145890235900879,-1.9003289937973022,2.9343700408935547,0.14691337943077087,False,
90,EPI,cbv,/home/chymera/.scratch/drlfom/dw_l1_seed/sub-6542/ses-ofMaF/sub-6542_ses-ofMaF_task-CogB_acq-EPI_run-0_cbv_tstat.nii.gz,0,ofMaF,6542,CogB,/home/chymera/.scratch/drlfom/dw_l1_seed/sub-6542/ses-ofMaF/sub-6542_ses-ofMaF_task-CogB_acq-EPI_run-0_cbv_pstat.nii.gz,Fluoxetine,-2.0103468894958496,-1.7933709621429443,3.278367519378662,0.16510029137134552,False,
91,EPI,cbv,/home/chymera/.scratch/drlfom/dw_l1_seed/sub-6542/ses-ofMcF1/sub-6542_ses-ofMcF1_task-CogB_acq-EPI_run-0_cbv_tstat.nii.gz,0,ofMcF1,6542,CogB,/home/chymera/.scratch/drlfom/dw_l1_seed/sub-6542/ses-ofMcF1/sub-6542_ses-ofMcF1_task-CogB_acq-EPI_run-0_cbv_pstat.nii.gz,Fluoxetine,-5.295083045959473,-4.031124114990234,3.5108118057250977,0.11296455562114716,False,session timestamp recorded at induction to maintenance anesthesia switch
92,EPI,cbv,/home/chymera/.scratch/drlfom/dw_l1_seed/sub-6542/ses-ofMcF2/sub-6542_ses-ofMcF2_task-CogB_acq-EPI_run-0_cbv_tstat.nii.gz,0,ofMcF2,6542,CogB,/home/chymera/.scratch/drlfom/dw_l1_seed/sub-6542/ses-ofMcF2/sub-6542_ses-ofMcF2_task-CogB_acq-EPI_run-0_cbv_pstat.nii.gz,Fluoxetine,-2.78246808052063,-2.5281968116760254,4.528412342071533,0.16580244898796082,False,possibly missing stimulation events (Laser was found in interlock state on the subsequent scan)
93,EPI,cbv,/home/chymera/.scratch/drlfom/dw_l1_seed/sub-6542/ses-ofMpF/sub-6542_ses-ofMpF_task-CogB_acq-EPI_run-0_cbv_tstat.nii.gz,0,ofMpF,6542,CogB,/home/chymera/.scratch/drlfom/dw_l1_seed/sub-6542/ses-ofMpF/sub-6542_ses-ofMpF_task-CogB_acq-EPI_run-0_cbv_pstat.nii.gz,Fluoxetine,-0.9618217945098877,-0.8501065969467163,4.328667163848877,0.26024889945983887,False,
94,EPI,cbv,/home/chymera/.scratch/drlfom/dw_l1_seed/sub-6548/ses-ofM/sub-6548_ses-ofM_task-CogB_acq-EPI_run-0_cbv_tstat.nii.gz,0,ofM,6548,CogB,/home/chymera/.scratch/drlfom/dw_l1_seed/sub-6548/ses-ofM/sub-6548_ses-ofM_task-CogB_acq-EPI_run-0_cbv_pstat.nii.gz,Fluoxetine,-3.089688777923584,-2.8191730976104736,2.605442523956299,0.10233569145202637,False,session timestamp recorded at induction to maintenance anesthesia switch
95,EPI,cbv,/home/chymera/.scratch/drlfom/dw_l1_seed/sub-6548/ses-ofMaF/sub-6548_ses-ofMaF_task-CogB_acq-EPI_run-0_cbv_tstat.nii.gz,0,ofMaF,6548,CogB,/home/chymera/.scratch/drlfom/dw_l1_seed/sub-6548/ses-ofMaF/sub-6548_ses-ofMaF_task-CogB_acq-EPI_run-0_cbv_pstat.nii.gz,Fluoxetine,-1.2443574666976929,-1.1238070726394653,3.3831119537353516,0.22100187838077545,False,
96,EPI,cbv,/home/chymera/.scratch/drlfom/dw_l1_seed/sub-6548/ses-ofMcF1/sub-6548_ses-ofMcF1_task-CogB_acq-EPI_run-0_cbv_tstat.nii.gz,0,ofMcF1,6548,CogB,/home/chymera/.scratch/drlfom/dw_l1_seed/sub-6548/ses-ofMcF1/sub-6548_ses-ofMcF1_task-CogB_acq-EPI_run-0_cbv_pstat.nii.gz,Fluoxetine,-4.143411636352539,-3.727663993835449,2.8973758220672607,0.09098413586616516,False,
97,EPI,cbv,/home/chymera/.scratch/drlfom/dw_l1_seed/sub-6548/ses-ofMcF2/sub-6548_ses-ofMcF2_task-CogB_acq-EPI_run-0_cbv_tstat.nii.gz,0,ofMcF2,6548,CogB,/home/chymera/.scratch/drlfom/dw_l1_seed/sub-6548/ses-ofMcF2/sub-6548_ses-ofMcF2_task-CogB_acq-EPI_run-0_cbv_pstat.nii.gz,Fluoxetine,-1.1576677560806274,-1.0857056379318237,3.299203634262085,0.21582290530204773,True,maintained isoflurane at 1.5%% during measurement
98,EPI,cbv,/home/chymera/.scratch/drlfom/dw_l1_seed/sub-6548/ses-ofMpF/sub-6548_ses-ofMpF_task-CogB_acq-EPI_run-0_cbv_tstat.nii.gz,0,ofMpF,6548,CogB,/home/chymera/.scratch/drlfom/dw_l1_seed/sub-6548/ses-ofMpF/sub-6548_ses-ofMpF_task-CogB_acq-EPI_run-0_cbv_pstat.nii.gz,Fluoxetine,-0.3447725772857666,-0.3261297941207886,3.7503552436828613,0.3153562545776367,False,
99,EPI,cbv,/home/chymera/.scratch/drlfom/dw_l1_seed/sub-6549/ses-ofM/sub-6549_ses-ofM_task-CogB_acq-EPI_run-0_cbv_tstat.nii.gz,0,ofM,6549,CogB,/home/chymera/.scratch/drlfom/dw_l1_seed/sub-6549/ses-ofM/sub-6549_ses-ofM_task-CogB_acq-EPI_run-0_cbv_pstat.nii.gz,Fluoxetine,-1.4078724384307861,-1.3758370876312256,2.4615447521209717,0.1901792585849762,False,
100,EPI,cbv,/home/chymera/.scratch/drlfom/dw_l1_seed/sub-6549/ses-ofMaF/sub-6549_ses-ofMaF_task-CogB_acq-EPI_run-0_cbv_tstat.nii.gz,0,ofMaF,6549,CogB,/home/chymera/.scratch/drlfom/dw_l1_seed/sub-6549/ses-ofMaF/sub-6549_ses-ofMaF_task-CogB_acq-EPI_run-0_cbv_pstat.nii.gz,Fluoxetine,-3.219633102416992,-2.8816330432891846,2.34704327583313,0.10566581785678864,False,
101,EPI,cbv,/home/chymera/.scratch/drlfom/dw_l1_seed/sub-6549/ses-ofMcF1/sub-6549_ses-ofMcF1_task-CogB_acq-EPI_run-0_cbv_tstat.nii.gz,0,ofMcF1,6549,CogB,/home/chymera/.scratch/drlfom/dw_l1_seed/sub-6549/ses-ofMcF1/sub-6549_ses-ofMcF1_task-CogB_acq-EPI_run-0_cbv_pstat.nii.gz,Fluoxetine,-1.9400821924209595,-1.6778576374053955,3.8571245670318604,0.20519283413887024,False,
102,EPI,cbv,/home/chymera/.scratch/drlfom/dw_l1_seed/sub-6549/ses-ofMcF2/sub-6549_ses-ofMcF2_task-CogB_acq-EPI_run-0_cbv_tstat.nii.gz,0,ofMcF2,6549,CogB,/home/chymera/.scratch/drlfom/dw_l1_seed/sub-6549/ses-ofMcF2/sub-6549_ses-ofMcF2_task-CogB_acq-EPI_run-0_cbv_pstat.nii.gz,Fluoxetine,-0.9025687575340271,-0.8491978645324707,3.867438554763794,0.23939628899097443,False,
103,EPI,cbv,/home/chymera/.scratch/drlfom/dw_l1_seed/sub-6549/ses-ofMpF/sub-6549_ses-ofMpF_task-CogB_acq-EPI_run-0_cbv_tstat.nii.gz,0,ofMpF,6549,CogB,/home/chymera/.scratch/drlfom/dw_l1_seed/sub-6549/ses-ofMpF/sub-6549_ses-ofMpF_task-CogB_acq-EPI_run-0_cbv_pstat.nii.gz,Fluoxetine,-1.2427067756652832,-1.1498745679855347,3.855032205581665,0.22471624612808228,True,maintained isoflurane at 1.5%% during measurement
104,EPI,cbv,/home/chymera/.scratch/drlfom/dw_l1_seed/sub-6552/ses-ofM/sub-6552_ses-ofM_task-CogB_acq-EPI_run-0_cbv_tstat.nii.gz,0,ofM,6552,CogB,/home/chymera/.scratch/drlfom/dw_l1_seed/sub-6552/ses-ofM/sub-6552_ses-ofM_task-CogB_acq-EPI_run-0_cbv_pstat.nii.gz,Vehicle,-0.9199109673500061,-0.8927105665206909,3.661309242248535,0.24830228090286255,False,
105,EPI,cbv,/home/chymera/.scratch/drlfom/dw_l1_seed/sub-6552/ses-ofMaF/sub-6552_ses-ofMaF_task-CogB_acq-EPI_run-0_cbv_tstat.nii.gz,0,ofMaF,6552,CogB,/home/chymera/.scratch/drlfom/dw_l1_seed/sub-6552/ses-ofMaF/sub-6552_ses-ofMaF_task-CogB_acq-EPI_run-0_cbv_pstat.nii.gz,Vehicle,-0.5239981412887573,-0.507420539855957,4.096922397613525,0.3011384904384613,False,
106,EPI,cbv,/home/chymera/.scratch/drlfom/dw_l1_seed/sub-6552/ses-ofMcF1/sub-6552_ses-ofMcF1_task-CogB_acq-EPI_run-0_cbv_tstat.nii.gz,0,ofMcF1,6552,CogB,/home/chymera/.scratch/drlfom/dw_l1_seed/sub-6552/ses-ofMcF1/sub-6552_ses-ofMcF1_task-CogB_acq-EPI_run-0_cbv_pstat.nii.gz,Vehicle,-0.08598535507917404,-0.08745960146188736,5.595181941986084,0.37347519397735596,False,
107,EPI,cbv,/home/chymera/.scratch/drlfom/dw_l1_seed/sub-6552/ses-ofMcF2/sub-6552_ses-ofMcF2_task-CogB_acq-EPI_run-0_cbv_tstat.nii.gz,0,ofMcF2,6552,CogB,/home/chymera/.scratch/drlfom/dw_l1_seed/sub-6552/ses-ofMcF2/sub-6552_ses-ofMcF2_task-CogB_acq-EPI_run-0_cbv_pstat.nii.gz,Vehicle,-0.9790418148040771,-0.898724377155304,3.6962430477142334,0.23798826336860657,False,
108,EPI,cbv,/home/chymera/.scratch/drlfom/dw_l1_seed/sub-6552/ses-ofMpF/sub-6552_ses-ofMpF_task-CogB_acq-EPI_run-0_cbv_tstat.nii.gz,0,ofMpF,6552,CogB,/home/chymera/.scratch/drlfom/dw_l1_seed/sub-6552/ses-ofMpF/sub-6552_ses-ofMpF_task-CogB_acq-EPI_run-0_cbv_pstat.nii.gz,Vehicle,-0.22111724317073822,-0.21496783196926117,5.155710220336914,0.3418738842010498,False,
109,EPI,cbv,/home/chymera/.scratch/drlfom/dw_l1_seed/sub-6553/ses-ofM/sub-6553_ses-ofM_task-CogB_acq-EPI_run-0_cbv_tstat.nii.gz,0,ofM,6553,CogB,/home/chymera/.scratch/drlfom/dw_l1_seed/sub-6553/ses-ofM/sub-6553_ses-ofM_task-CogB_acq-EPI_run-0_cbv_pstat.nii.gz,Vehicle,-0.6395253539085388,-0.5897200107574463,4.1615142822265625,0.27922117710113525,False,
110,EPI,cbv,/home/chymera/.scratch/drlfom/dw_l1_seed/sub-6553/ses-ofMaF/sub-6553_ses-ofMaF_task-CogB_acq-EPI_run-0_cbv_tstat.nii.gz,0,ofMaF,6553,CogB,/home/chymera/.scratch/drlfom/dw_l1_seed/sub-6553/ses-ofMaF/sub-6553_ses-ofMaF_task-CogB_acq-EPI_run-0_cbv_pstat.nii.gz,Vehicle,-0.40547919273376465,-0.3862079083919525,3.9166336059570312,0.3017653524875641,False,
111,EPI,cbv,/home/chymera/.scratch/drlfom/dw_l1_seed/sub-6553/ses-ofMcF1/sub-6553_ses-ofMcF1_task-CogB_acq-EPI_run-0_cbv_tstat.nii.gz,0,ofMcF1,6553,CogB,/home/chymera/.scratch/drlfom/dw_l1_seed/sub-6553/ses-ofMcF1/sub-6553_ses-ofMcF1_task-CogB_acq-EPI_run-0_cbv_pstat.nii.gz,Vehicle,-0.7900702953338623,-0.7311995625495911,3.9371604919433594,0.2694755792617798,False,
112,EPI,cbv,/home/chymera/.scratch/drlfom/dw_l1_seed/sub-6553/ses-ofMcF2/sub-6553_ses-ofMcF2_task-CogB_acq-EPI_run-0_cbv_tstat.nii.gz,0,ofMcF2,6553,CogB,/home/chymera/.scratch/drlfom/dw_l1_seed/sub-6553/ses-ofMcF2/sub-6553_ses-ofMcF2_task-CogB_acq-EPI_run-0_cbv_pstat.nii.gz,Vehicle,-0.345262348651886,-0.3094947338104248,4.584906578063965,0.318864643573761,False,"rapid breathing, blinking, and whisker movement upon measurement conclusion (no signs of anesthetic mis-delivery); rapid breathing, blinking, and whisker movement upon measurement conclusion (no signs of anesthetic mis-delivery)"
113,EPI,cbv,/home/chymera/.scratch/drlfom/dw_l1_seed/sub-6553/ses-ofMpF/sub-6553_ses-ofMpF_task-CogB_acq-EPI_run-0_cbv_tstat.nii.gz,0,ofMpF,6553,CogB,/home/chymera/.scratch/drlfom/dw_l1_seed/sub-6553/ses-ofMpF/sub-6553_ses-ofMpF_task-CogB_acq-EPI_run-0_cbv_pstat.nii.gz,Vehicle,-0.20936067402362823,-0.20240391790866852,4.737265586853027,0.34550347924232483,False,
114,EPI,cbv,/home/chymera/.scratch/drlfom/dw_l1_seed/sub-6556/ses-ofM/sub-6556_ses-ofM_task-CogB_acq-EPI_run-0_cbv_tstat.nii.gz,0,ofM,6556,CogB,/home/chymera/.scratch/drlfom/dw_l1_seed/sub-6556/ses-ofM/sub-6556_ses-ofM_task-CogB_acq-EPI_run-0_cbv_pstat.nii.gz,Vehicle,-1.36381196975708,-1.2883027791976929,3.1449098587036133,0.1873919516801834,False,
115,EPI,bold,/home/chymera/.scratch/drlfom/dw_l1_seed/sub-6556/ses-ofMaF/sub-6556_ses-ofMaF_task-CogB_acq-EPI_run-0_bold_tstat.nii.gz,0,ofMaF,6556,CogB,/home/chymera/.scratch/drlfom/dw_l1_seed/sub-6556/ses-ofMaF/sub-6556_ses-ofMaF_task-CogB_acq-EPI_run-0_bold_pstat.nii.gz,Vehicle,0.11070806533098221,0.11257940530776978,5.6204633712768555,0.4048972427845001,False,"agitated during induction; tail too short, unable to cannulate"
116,EPI,bold,/home/chymera/.scratch/drlfom/dw_l1_seed/sub-6556/ses-ofMcF1/sub-6556_ses-ofMcF1_task-CogB_acq-EPI_run-0_bold_tstat.nii.gz,0,ofMcF1,6556,CogB,/home/chymera/.scratch/drlfom/dw_l1_seed/sub-6556/ses-ofMcF1/sub-6556_ses-ofMcF1_task-CogB_acq-EPI_run-0_bold_pstat.nii.gz,Vehicle,0.026961343362927437,0.009401976130902767,4.371218204498291,0.38049906492233276,False,"tail too short, unable to cannulate"
117,EPI,bold,/home/chymera/.scratch/drlfom/dw_l1_seed/sub-6556/ses-ofMcF2/sub-6556_ses-ofMcF2_task-CogB_acq-EPI_run-0_bold_tstat.nii.gz,0,ofMcF2,6556,CogB,/home/chymera/.scratch/drlfom/dw_l1_seed/sub-6556/ses-ofMcF2/sub-6556_ses-ofMcF2_task-CogB_acq-EPI_run-0_bold_pstat.nii.gz,Vehicle,0.1787782907485962,0.16873155534267426,4.736047267913818,0.4150365889072418,False,"session timestamp recorded at induction to maintenance anesthesia switch; tail too short, unable to cannulate; flinching (signs of partial Medetomidine anesthesia mis-delivery)"
118,EPI,bold,/home/chymera/.scratch/drlfom/dw_l1_seed/sub-6556/ses-ofMpF/sub-6556_ses-ofMpF_task-CogB_acq-EPI_run-0_bold_tstat.nii.gz,0,ofMpF,6556,CogB,/home/chymera/.scratch/drlfom/dw_l1_seed/sub-6556/ses-ofMpF/sub-6556_ses-ofMpF_task-CogB_acq-EPI_run-0_bold_pstat.nii.gz,Vehicle,0.40210822224617004,0.36815303564071655,6.92597770690918,0.46678632497787476,False,"tail too short, unable to cannulate"
