digraph graphname {
    newrank=true;
    rankdir="LR";
    splines=ortho;
    graph [fontname = "sans", pad="0.07"];
    node [fontname = "sans", style=filled];
    edge [fontname = "sans", color=gray50];
    a[label="Laser", shape=diamond, fontcolor="#4AA5E0", color="#4AA5E0", fillcolor="#AEEEEE"];
    b[label="DR", shape=circle, fontcolor="#FFFFFF", color="#61aa3eff", fillcolor="#61aa3eff"];
    c[label="\nCingulate Cortex\n ", width=2, shape=box, style="rounded,filled", fontcolor="#000000", color="#bfe2ae", fillcolor="#bfe2ae"];
    d[label="\nOlfactory Bulb\n ", width=2, shape=box, style="rounded,filled", fontcolor="#000000", color="#bfe2ae", fillcolor="#bfe2ae"];
    e[label="\nHippocampus\n ", width=2, shape=box, style="rounded,filled", fontcolor="#000000", color="#bfe2ae", fillcolor="#bfe2ae"];
    f[label="\n...\n ", width=2, shape=box, style="rounded,filled", fontcolor="#000000", color="#bfe2ae", fillcolor="#bfe2ae"];
    a -> b [headlabel=<     u<SUB>1</SUB>>, fontcolor="#4AA5E0", penwidth=2, color="#4AA5E0", labeldistance="2.2"];
    subgraph cluster1 {
        b:s -> c:w [headlabel=<u<SUB>2d</SUB>>, penwidth=2, color="#61aa3eff", fontcolor="#61aa3eff"];
        b -> d [headlabel=<u<SUB>2c</SUB>>, penwidth=2, color="#61aa3eff", fontcolor="#61aa3eff"];
        b -> e [headlabel=<      u<SUB>2b</SUB>>, penwidth=2, color="#61aa3eff", fontcolor="#61aa3eff", labeldistance="2.9"];
        b -> f [headlabel=<u<SUB>2a</SUB> >, penwidth=2, color="#61aa3eff", fontcolor="#61aa3eff"];
        label = "Brain";
        fontcolor = "#808080ff";
        color = "#808080ff";
    style=rounded;
    }
    {rank=same; b; f}
}
